EESchema Schematic File Version 4
LIBS:project-cache
EELAYER 29 0
EELAYER END
$Descr A4 11693 8268
encoding utf-8
Sheet 3 3
Title ""
Date ""
Rev ""
Comp ""
Comment1 ""
Comment2 ""
Comment3 ""
Comment4 ""
$EndDescr
$Comp
L STM32:STM32F030F4P6 U301
U 1 1 5CFF675A
P 5800 1700
F 0 "U301" H 5800 2587 60  0000 C CNN
F 1 "STM32F030F4P6" H 5800 2481 60  0000 C CNN
F 2 "Package_SO:TSSOP-20_4.4x6.5mm_P0.65mm" H 5800 2481 60  0001 C CNN
F 3 "" H 6000 1700 60  0000 C CNN
	1    5800 1700
	1    0    0    -1  
$EndComp
Text Notes 750  4400 0    50   ~ 0
/* Low-pass filter */\nEQ[f[CUT(1)]]: f[CUT] = 1 / (2*%pi*R*C)$\nEQ[f[PWM(1)]]: f[PWM] = f[CUT] * 5$\nEQ[f[PWM(2)]]: f[PWM] = f[MCU] / 2 / N[PWM]$\n\nEQ[f[CUT(2)]]: solve(EQ[f[PWM(1)]], f[CUT])[1], EQ[f[PWM(2)]]$\nEQ[R]: solve(EQ[f[CUT(1)]], R)[1], EQ[f[CUT(2)]]$\n\nPR[0]: [f[MCU]=48e6, N[PWM]=2^12, C=680e-9]$\nEQ[R], PR[0], numer;\n/* R=220 */;
$Comp
L Device:C_Small C302
U 1 1 5CFF6762
P 1400 2950
F 0 "C302" H 1492 2996 50  0000 L CNN
F 1 "22u" H 1492 2905 50  0000 L CNN
F 2 "Capacitor_SMD:C_0603_1608Metric" H 1400 2950 50  0001 C CNN
F 3 "~" H 1400 2950 50  0001 C CNN
	1    1400 2950
	1    0    0    -1  
$EndComp
$Comp
L Device:R_Small R302
U 1 1 5CFF6769
P 1400 2550
F 0 "R302" H 1459 2596 50  0000 L CNN
F 1 "220" H 1459 2505 50  0000 L CNN
F 2 "Resistor_SMD:R_0603_1608Metric" H 1400 2550 50  0001 C CNN
F 3 "~" H 1400 2550 50  0001 C CNN
	1    1400 2550
	1    0    0    -1  
$EndComp
$Comp
L power:GND #PWR0318
U 1 1 5CFF6770
P 1400 3150
F 0 "#PWR0318" H 1400 2900 50  0001 C CNN
F 1 "GND" H 1405 2977 50  0000 C CNN
F 2 "" H 1400 3150 50  0001 C CNN
F 3 "" H 1400 3150 50  0001 C CNN
	1    1400 3150
	1    0    0    -1  
$EndComp
Wire Wire Line
	1400 3050 1400 3150
Wire Wire Line
	1400 2850 1400 2750
Wire Wire Line
	1400 2750 1500 2750
Connection ~ 1400 2750
Wire Wire Line
	1400 2750 1400 2650
Wire Wire Line
	1400 2450 1400 2350
Wire Wire Line
	1400 2350 1100 2350
Text GLabel 1500 2750 2    50   Input ~ 0
I_REF
Text Label 1100 2350 0    50   ~ 0
I_PWM
$Comp
L Device:C_Small C303
U 1 1 5CFF677F
P 2200 2950
F 0 "C303" H 2292 2996 50  0000 L CNN
F 1 "10u" H 2292 2905 50  0000 L CNN
F 2 "Capacitor_SMD:C_0603_1608Metric" H 2200 2950 50  0001 C CNN
F 3 "~" H 2200 2950 50  0001 C CNN
	1    2200 2950
	1    0    0    -1  
$EndComp
$Comp
L Device:R_Small R303
U 1 1 5CFF6786
P 2200 2550
F 0 "R303" H 2259 2596 50  0000 L CNN
F 1 "330" H 2259 2505 50  0000 L CNN
F 2 "Resistor_SMD:R_0603_1608Metric" H 2200 2550 50  0001 C CNN
F 3 "~" H 2200 2550 50  0001 C CNN
	1    2200 2550
	1    0    0    -1  
$EndComp
$Comp
L power:GND #PWR0319
U 1 1 5CFF678D
P 2200 3150
F 0 "#PWR0319" H 2200 2900 50  0001 C CNN
F 1 "GND" H 2205 2977 50  0000 C CNN
F 2 "" H 2200 3150 50  0001 C CNN
F 3 "" H 2200 3150 50  0001 C CNN
	1    2200 3150
	1    0    0    -1  
$EndComp
Wire Wire Line
	2200 3050 2200 3150
Wire Wire Line
	2200 2850 2200 2750
Wire Wire Line
	2200 2750 2300 2750
Connection ~ 2200 2750
Wire Wire Line
	2200 2750 2200 2650
Wire Wire Line
	2200 2450 2200 2350
Wire Wire Line
	2200 2350 1900 2350
Text GLabel 2300 2750 2    50   Input ~ 0
U_REF
Text Label 1900 2350 0    50   ~ 0
U_PWM
Text Label 3300 2100 0    50   ~ 0
I_PWM
Text Label 3300 2000 0    50   ~ 0
U_PWM
Wire Wire Line
	3600 2000 3300 2000
Wire Wire Line
	3600 2100 3300 2100
$Comp
L STM32:SWD J301
U 1 1 5CFF67A0
P 1500 1550
F 0 "J301" H 1419 1987 60  0000 C CNN
F 1 "SWD" H 1419 1881 60  0000 C CNN
F 2 "Connector_PinHeader_2.00mm:PinHeader_1x04_P2.00mm_Vertical" H 1300 1550 60  0001 C CNN
F 3 "" H 1300 1550 60  0000 C CNN
	1    1500 1550
	-1   0    0    -1  
$EndComp
Wire Wire Line
	1900 1500 2000 1500
Wire Wire Line
	2000 1500 2000 1300
Wire Wire Line
	1900 1700 2000 1700
Wire Wire Line
	2000 1700 2000 1800
$Comp
L power:GND #PWR0303
U 1 1 5CFF67AB
P 2000 1800
F 0 "#PWR0303" H 2000 1550 50  0001 C CNN
F 1 "GND" H 2005 1627 50  0000 C CNN
F 2 "" H 2000 1800 50  0001 C CNN
F 3 "" H 2000 1800 50  0001 C CNN
	1    2000 1800
	1    0    0    -1  
$EndComp
$Comp
L power:+3V3 #PWR0302
U 1 1 5CFF67B1
P 2000 1300
F 0 "#PWR0302" H 2000 1150 50  0001 C CNN
F 1 "+3V3" H 2015 1473 50  0000 C CNN
F 2 "" H 2000 1300 50  0001 C CNN
F 3 "" H 2000 1300 50  0001 C CNN
	1    2000 1300
	1    0    0    -1  
$EndComp
Text Label 3300 2200 0    50   ~ 0
SWDIO
Text Label 3300 2300 0    50   ~ 0
SWCLK
Wire Wire Line
	3300 2200 3600 2200
Wire Wire Line
	3300 2300 3600 2300
Text Label 2300 1400 2    50   ~ 0
SWDIO
Text Label 2300 1600 2    50   ~ 0
SWCLK
Wire Wire Line
	1900 1400 2300 1400
Wire Wire Line
	1900 1600 2300 1600
Wire Wire Line
	3200 1800 3600 1800
Wire Wire Line
	3200 1700 3600 1700
Wire Wire Line
	3200 1600 3600 1600
Wire Wire Line
	3200 1500 3600 1500
Wire Wire Line
	8000 1800 8100 1800
Wire Wire Line
	8000 2300 8100 2300
$Comp
L Device:C_Small C304
U 1 1 5CFF67C5
P 6800 3400
F 0 "C304" H 6892 3446 50  0000 L CNN
F 1 "100n" H 6892 3355 50  0000 L CNN
F 2 "Capacitor_SMD:C_0603_1608Metric" H 6800 3400 50  0001 C CNN
F 3 "~" H 6800 3400 50  0001 C CNN
	1    6800 3400
	1    0    0    -1  
$EndComp
$Comp
L power:GND #PWR0320
U 1 1 5CFF67CC
P 6800 3600
F 0 "#PWR0320" H 6800 3350 50  0001 C CNN
F 1 "GND" H 6805 3427 50  0000 C CNN
F 2 "" H 6800 3600 50  0001 C CNN
F 3 "" H 6800 3600 50  0001 C CNN
	1    6800 3600
	1    0    0    -1  
$EndComp
$Comp
L power:+3V3 #PWR0311
U 1 1 5CFF67D2
P 6800 3200
F 0 "#PWR0311" H 6800 3050 50  0001 C CNN
F 1 "+3V3" H 6815 3373 50  0000 C CNN
F 2 "" H 6800 3200 50  0001 C CNN
F 3 "" H 6800 3200 50  0001 C CNN
	1    6800 3200
	1    0    0    -1  
$EndComp
Wire Wire Line
	6800 3300 6800 3200
Wire Wire Line
	6800 3600 6800 3500
$Comp
L Device:C_Small C305
U 1 1 5CFF67DA
P 7200 3400
F 0 "C305" H 7292 3446 50  0000 L CNN
F 1 "100n" H 7292 3355 50  0000 L CNN
F 2 "Capacitor_SMD:C_0603_1608Metric" H 7200 3400 50  0001 C CNN
F 3 "~" H 7200 3400 50  0001 C CNN
	1    7200 3400
	1    0    0    -1  
$EndComp
$Comp
L power:GND #PWR0321
U 1 1 5CFF67E1
P 7200 3600
F 0 "#PWR0321" H 7200 3350 50  0001 C CNN
F 1 "GND" H 7205 3427 50  0000 C CNN
F 2 "" H 7200 3600 50  0001 C CNN
F 3 "" H 7200 3600 50  0001 C CNN
	1    7200 3600
	1    0    0    -1  
$EndComp
$Comp
L power:+3V3 #PWR0312
U 1 1 5CFF67E7
P 7200 3200
F 0 "#PWR0312" H 7200 3050 50  0001 C CNN
F 1 "+3V3" H 7215 3373 50  0000 C CNN
F 2 "" H 7200 3200 50  0001 C CNN
F 3 "" H 7200 3200 50  0001 C CNN
	1    7200 3200
	1    0    0    -1  
$EndComp
Wire Wire Line
	7200 3300 7200 3200
Wire Wire Line
	7200 3600 7200 3500
$Comp
L Device:CP_Small C306
U 1 1 5CFF67EF
P 7600 3400
F 0 "C306" H 7688 3446 50  0000 L CNN
F 1 "10u" H 7688 3355 50  0000 L CNN
F 2 "Capacitor_SMD:C_0805_2012Metric" H 7600 3400 50  0001 C CNN
F 3 "~" H 7600 3400 50  0001 C CNN
	1    7600 3400
	1    0    0    -1  
$EndComp
$Comp
L power:+3V3 #PWR0313
U 1 1 5CFF67F6
P 7600 3200
F 0 "#PWR0313" H 7600 3050 50  0001 C CNN
F 1 "+3V3" H 7615 3373 50  0000 C CNN
F 2 "" H 7600 3200 50  0001 C CNN
F 3 "" H 7600 3200 50  0001 C CNN
	1    7600 3200
	1    0    0    -1  
$EndComp
Wire Wire Line
	7600 3300 7600 3200
$Comp
L power:GND #PWR0322
U 1 1 5CFF67FD
P 7600 3600
F 0 "#PWR0322" H 7600 3350 50  0001 C CNN
F 1 "GND" H 7605 3427 50  0000 C CNN
F 2 "" H 7600 3600 50  0001 C CNN
F 3 "" H 7600 3600 50  0001 C CNN
	1    7600 3600
	1    0    0    -1  
$EndComp
Wire Wire Line
	7600 3600 7600 3500
Wire Wire Line
	8100 2300 8100 2400
$Comp
L power:GND #PWR0308
U 1 1 5CFF6805
P 8100 2400
F 0 "#PWR0308" H 8100 2150 50  0001 C CNN
F 1 "GND" H 8105 2227 50  0000 C CNN
F 2 "" H 8100 2400 50  0001 C CNN
F 3 "" H 8100 2400 50  0001 C CNN
	1    8100 2400
	1    0    0    -1  
$EndComp
$Comp
L power:+3V3 #PWR0305
U 1 1 5CFF680B
P 8200 2000
F 0 "#PWR0305" H 8200 1850 50  0001 C CNN
F 1 "+3V3" V 8215 2128 50  0000 L CNN
F 2 "" H 8200 2000 50  0001 C CNN
F 3 "" H 8200 2000 50  0001 C CNN
	1    8200 2000
	0    1    1    0   
$EndComp
Wire Wire Line
	8000 2000 8200 2000
Wire Wire Line
	8000 2100 8200 2100
$Comp
L power:VDDA #PWR0307
U 1 1 5CFF6813
P 8200 2100
F 0 "#PWR0307" H 8200 1950 50  0001 C CNN
F 1 "VDDA" V 8217 2228 50  0000 L CNN
F 2 "" H 8200 2100 50  0001 C CNN
F 3 "" H 8200 2100 50  0001 C CNN
	1    8200 2100
	0    1    1    0   
$EndComp
$Comp
L Device:C_Small C307
U 1 1 5CFF6819
P 8800 3400
F 0 "C307" H 8892 3446 50  0000 L CNN
F 1 "10n" H 8892 3355 50  0000 L CNN
F 2 "Capacitor_SMD:C_0603_1608Metric" H 8800 3400 50  0001 C CNN
F 3 "~" H 8800 3400 50  0001 C CNN
	1    8800 3400
	1    0    0    -1  
$EndComp
$Comp
L power:GND #PWR0323
U 1 1 5CFF6820
P 8800 3600
F 0 "#PWR0323" H 8800 3350 50  0001 C CNN
F 1 "GND" H 8805 3427 50  0000 C CNN
F 2 "" H 8800 3600 50  0001 C CNN
F 3 "" H 8800 3600 50  0001 C CNN
	1    8800 3600
	1    0    0    -1  
$EndComp
Wire Wire Line
	8800 3300 8800 3200
Wire Wire Line
	8800 3600 8800 3500
$Comp
L Device:CP_Small C308
U 1 1 5CFF6828
P 9200 3400
F 0 "C308" H 9288 3446 50  0000 L CNN
F 1 "1u" H 9288 3355 50  0000 L CNN
F 2 "Capacitor_SMD:C_0805_2012Metric" H 9200 3400 50  0001 C CNN
F 3 "~" H 9200 3400 50  0001 C CNN
	1    9200 3400
	1    0    0    -1  
$EndComp
Wire Wire Line
	9200 3300 9200 3200
$Comp
L power:GND #PWR0324
U 1 1 5CFF6830
P 9200 3600
F 0 "#PWR0324" H 9200 3350 50  0001 C CNN
F 1 "GND" H 9205 3427 50  0000 C CNN
F 2 "" H 9200 3600 50  0001 C CNN
F 3 "" H 9200 3600 50  0001 C CNN
	1    9200 3600
	1    0    0    -1  
$EndComp
Wire Wire Line
	9200 3600 9200 3500
$Comp
L power:VDDA #PWR0316
U 1 1 5CFF6837
P 8800 3200
F 0 "#PWR0316" H 8800 3050 50  0001 C CNN
F 1 "VDDA" H 8817 3373 50  0000 C CNN
F 2 "" H 8800 3200 50  0001 C CNN
F 3 "" H 8800 3200 50  0001 C CNN
	1    8800 3200
	1    0    0    -1  
$EndComp
$Comp
L power:VDDA #PWR0317
U 1 1 5CFF683D
P 9200 3200
F 0 "#PWR0317" H 9200 3050 50  0001 C CNN
F 1 "VDDA" H 9217 3373 50  0000 C CNN
F 2 "" H 9200 3200 50  0001 C CNN
F 3 "" H 9200 3200 50  0001 C CNN
	1    9200 3200
	1    0    0    -1  
$EndComp
$Comp
L Device:Ferrite_Bead_Small FB301
U 1 1 5CFF6843
P 8200 3300
F 0 "FB301" V 7963 3300 50  0000 C CNN
F 1 "470R" V 8054 3300 50  0000 C CNN
F 2 "Fuse:Fuse_0805_2012Metric" V 8130 3300 50  0001 C CNN
F 3 "~" H 8200 3300 50  0001 C CNN
	1    8200 3300
	0    1    1    0   
$EndComp
$Comp
L power:+3V3 #PWR0314
U 1 1 5CFF684A
P 8000 3200
F 0 "#PWR0314" H 8000 3050 50  0001 C CNN
F 1 "+3V3" H 8015 3373 50  0000 C CNN
F 2 "" H 8000 3200 50  0001 C CNN
F 3 "" H 8000 3200 50  0001 C CNN
	1    8000 3200
	1    0    0    -1  
$EndComp
$Comp
L power:VDDA #PWR0315
U 1 1 5CFF6850
P 8400 3200
F 0 "#PWR0315" H 8400 3050 50  0001 C CNN
F 1 "VDDA" H 8417 3373 50  0000 C CNN
F 2 "" H 8400 3200 50  0001 C CNN
F 3 "" H 8400 3200 50  0001 C CNN
	1    8400 3200
	1    0    0    -1  
$EndComp
Wire Wire Line
	8000 3200 8000 3300
Wire Wire Line
	8000 3300 8100 3300
Wire Wire Line
	8300 3300 8400 3300
Wire Wire Line
	8400 3300 8400 3200
$Comp
L power:GND #PWR0304
U 1 1 5CFF685A
P 8100 1800
F 0 "#PWR0304" H 8100 1550 50  0001 C CNN
F 1 "GND" V 8105 1672 50  0000 R CNN
F 2 "" H 8100 1800 50  0001 C CNN
F 3 "" H 8100 1800 50  0001 C CNN
	1    8100 1800
	0    -1   -1   0   
$EndComp
Text Label 8300 1600 2    50   ~ 0
RESET
Wire Wire Line
	8000 1600 8300 1600
$Comp
L Device:C_Small C301
U 1 1 5CFF6862
P 9200 1800
F 0 "C301" H 9292 1846 50  0000 L CNN
F 1 "100n" H 9292 1755 50  0000 L CNN
F 2 "Capacitor_SMD:C_0603_1608Metric" H 9200 1800 50  0001 C CNN
F 3 "~" H 9200 1800 50  0001 C CNN
	1    9200 1800
	1    0    0    -1  
$EndComp
$Comp
L power:GND #PWR0306
U 1 1 5CFF6869
P 9200 2000
F 0 "#PWR0306" H 9200 1750 50  0001 C CNN
F 1 "GND" H 9205 1827 50  0000 C CNN
F 2 "" H 9200 2000 50  0001 C CNN
F 3 "" H 9200 2000 50  0001 C CNN
	1    9200 2000
	1    0    0    -1  
$EndComp
Wire Wire Line
	9200 2000 9200 1900
Wire Wire Line
	8900 1600 9200 1600
Wire Wire Line
	9200 1600 9200 1700
Wire Wire Line
	9200 1600 9200 1500
Connection ~ 9200 1600
$Comp
L Device:R_Small R301
U 1 1 5CFF6874
P 9200 1400
F 0 "R301" H 9259 1446 50  0000 L CNN
F 1 "10K" H 9259 1355 50  0000 L CNN
F 2 "Resistor_SMD:R_0603_1608Metric" H 9200 1400 50  0001 C CNN
F 3 "~" H 9200 1400 50  0001 C CNN
	1    9200 1400
	1    0    0    -1  
$EndComp
Wire Wire Line
	9200 1300 9200 1200
Text Label 8900 1600 0    50   ~ 0
RESET
Wire Wire Line
	8000 1300 8300 1300
Wire Wire Line
	8000 1400 8300 1400
Text Label 3200 1100 0    50   ~ 0
T1_SENS
Wire Wire Line
	3600 1100 3200 1100
Wire Wire Line
	8000 1100 8100 1100
Text Label 3200 1800 0    50   ~ 0
LCD_IN
Text Label 3200 1600 0    50   ~ 0
LCD_CLK
Text Label 3200 1700 0    50   ~ 0
LCD_D~C
Wire Wire Line
	3600 1200 3200 1200
Text Label 3200 1200 0    50   ~ 0
T2_SENS
Text Label 3200 1500 0    50   ~ 0
LCD_PWM
Text Label 8300 1300 2    50   ~ 0
ENC_A
Text Label 8300 1400 2    50   ~ 0
ENC_B
Wire Wire Line
	3600 1400 3300 1400
Text Label 3300 1400 0    50   ~ 0
ENC_P
Wire Wire Line
	3600 1300 3500 1300
NoConn ~ 3500 1300
$Comp
L Device:R_Small R304
U 1 1 5D00D849
P 3800 3500
F 0 "R304" H 3859 3546 50  0000 L CNN
F 1 "4K7" H 3859 3455 50  0000 L CNN
F 2 "Resistor_SMD:R_0603_1608Metric" H 3800 3500 50  0001 C CNN
F 3 "~" H 3800 3500 50  0001 C CNN
	1    3800 3500
	1    0    0    -1  
$EndComp
$Comp
L Connector:Conn_01x02_Male J302
U 1 1 5D00D97D
P 4100 3300
F 0 "J302" H 4073 3180 50  0000 R CNN
F 1 "NTC 100K 3750" H 4073 3271 50  0000 R CNN
F 2 "Connector_Molex:Molex_KK-254_AE-6410-02A_1x02_P2.54mm_Vertical" H 4100 3300 50  0001 C CNN
F 3 "~" H 4100 3300 50  0001 C CNN
	1    4100 3300
	-1   0    0    1   
$EndComp
Wire Wire Line
	3900 3300 3800 3300
Wire Wire Line
	3800 3300 3800 3400
Wire Wire Line
	3900 3200 3800 3200
Wire Wire Line
	3800 3200 3800 3100
$Comp
L power:GND #PWR0326
U 1 1 5D010EB4
P 3800 3700
F 0 "#PWR0326" H 3800 3450 50  0001 C CNN
F 1 "GND" H 3805 3527 50  0000 C CNN
F 2 "" H 3800 3700 50  0001 C CNN
F 3 "" H 3800 3700 50  0001 C CNN
	1    3800 3700
	1    0    0    -1  
$EndComp
Wire Wire Line
	3800 3600 3800 3700
$Comp
L power:VDDA #PWR0309
U 1 1 5D014B4A
P 3800 3100
F 0 "#PWR0309" H 3800 2950 50  0001 C CNN
F 1 "VDDA" H 3817 3273 50  0000 C CNN
F 2 "" H 3800 3100 50  0001 C CNN
F 3 "" H 3800 3100 50  0001 C CNN
	1    3800 3100
	1    0    0    -1  
$EndComp
$Comp
L Device:C_Small C309
U 1 1 5D015AC0
P 3400 3500
F 0 "C309" H 3492 3546 50  0000 L CNN
F 1 "10n" H 3492 3455 50  0000 L CNN
F 2 "Capacitor_SMD:C_0603_1608Metric" H 3400 3500 50  0001 C CNN
F 3 "~" H 3400 3500 50  0001 C CNN
	1    3400 3500
	1    0    0    -1  
$EndComp
Wire Wire Line
	3400 3300 3400 3400
Wire Wire Line
	3400 3600 3400 3700
$Comp
L power:GND #PWR0325
U 1 1 5D017C09
P 3400 3700
F 0 "#PWR0325" H 3400 3450 50  0001 C CNN
F 1 "GND" H 3405 3527 50  0000 C CNN
F 2 "" H 3400 3700 50  0001 C CNN
F 3 "" H 3400 3700 50  0001 C CNN
	1    3400 3700
	1    0    0    -1  
$EndComp
Wire Wire Line
	3400 3300 3300 3300
Connection ~ 3400 3300
Text Label 3300 3300 0    50   ~ 0
T1_SENS
$Comp
L Device:R_Small R305
U 1 1 5D01B549
P 5500 3500
F 0 "R305" H 5559 3546 50  0000 L CNN
F 1 "4K7" H 5559 3455 50  0000 L CNN
F 2 "Resistor_SMD:R_0603_1608Metric" H 5500 3500 50  0001 C CNN
F 3 "~" H 5500 3500 50  0001 C CNN
	1    5500 3500
	1    0    0    -1  
$EndComp
$Comp
L Connector:Conn_01x02_Male J303
U 1 1 5D01B54F
P 5800 3300
F 0 "J303" H 5773 3180 50  0000 R CNN
F 1 "NTC 100K 3750" H 5773 3271 50  0000 R CNN
F 2 "Connector_Molex:Molex_KK-254_AE-6410-02A_1x02_P2.54mm_Vertical" H 5800 3300 50  0001 C CNN
F 3 "~" H 5800 3300 50  0001 C CNN
	1    5800 3300
	-1   0    0    1   
$EndComp
Wire Wire Line
	5600 3300 5500 3300
Wire Wire Line
	5500 3300 5500 3400
Wire Wire Line
	5600 3200 5500 3200
Wire Wire Line
	5500 3200 5500 3100
$Comp
L power:GND #PWR0328
U 1 1 5D01B559
P 5500 3700
F 0 "#PWR0328" H 5500 3450 50  0001 C CNN
F 1 "GND" H 5505 3527 50  0000 C CNN
F 2 "" H 5500 3700 50  0001 C CNN
F 3 "" H 5500 3700 50  0001 C CNN
	1    5500 3700
	1    0    0    -1  
$EndComp
Wire Wire Line
	5500 3600 5500 3700
$Comp
L power:VDDA #PWR0310
U 1 1 5D01B560
P 5500 3100
F 0 "#PWR0310" H 5500 2950 50  0001 C CNN
F 1 "VDDA" H 5517 3273 50  0000 C CNN
F 2 "" H 5500 3100 50  0001 C CNN
F 3 "" H 5500 3100 50  0001 C CNN
	1    5500 3100
	1    0    0    -1  
$EndComp
$Comp
L Device:C_Small C310
U 1 1 5D01B567
P 5100 3500
F 0 "C310" H 5192 3546 50  0000 L CNN
F 1 "10n" H 5192 3455 50  0000 L CNN
F 2 "Capacitor_SMD:C_0603_1608Metric" H 5100 3500 50  0001 C CNN
F 3 "~" H 5100 3500 50  0001 C CNN
	1    5100 3500
	1    0    0    -1  
$EndComp
Wire Wire Line
	5100 3300 5100 3400
Wire Wire Line
	5100 3600 5100 3700
$Comp
L power:GND #PWR0327
U 1 1 5D01B570
P 5100 3700
F 0 "#PWR0327" H 5100 3450 50  0001 C CNN
F 1 "GND" H 5105 3527 50  0000 C CNN
F 2 "" H 5100 3700 50  0001 C CNN
F 3 "" H 5100 3700 50  0001 C CNN
	1    5100 3700
	1    0    0    -1  
$EndComp
Wire Wire Line
	5100 3300 5000 3300
Connection ~ 5100 3300
Text Label 5000 3300 0    50   ~ 0
T2_SENS
$Comp
L Display:LPH7366 U302
U 1 1 5D022138
P 3300 5200
F 0 "U302" H 3527 5172 60  0000 L CNN
F 1 "LPH7366" H 3527 5066 60  0000 L CNN
F 2 "Extra:LPH-7366" H 3100 5100 60  0001 C CNN
F 3 "" H 3100 5100 60  0000 C CNN
	1    3300 5200
	1    0    0    -1  
$EndComp
Wire Wire Line
	3300 5850 3300 6000
$Comp
L power:GND #PWR0341
U 1 1 5D0250D5
P 3300 6000
F 0 "#PWR0341" H 3300 5750 50  0001 C CNN
F 1 "GND" H 3305 5827 50  0000 C CNN
F 2 "" H 3300 6000 50  0001 C CNN
F 3 "" H 3300 6000 50  0001 C CNN
	1    3300 6000
	1    0    0    -1  
$EndComp
Wire Wire Line
	2900 5200 2800 5200
Wire Wire Line
	2800 5200 2800 5400
Wire Wire Line
	2800 5400 2900 5400
Wire Wire Line
	2800 5400 2800 6000
Connection ~ 2800 5400
$Comp
L power:GND #PWR0340
U 1 1 5D029F94
P 2800 6000
F 0 "#PWR0340" H 2800 5750 50  0001 C CNN
F 1 "GND" H 2805 5827 50  0000 C CNN
F 2 "" H 2800 6000 50  0001 C CNN
F 3 "" H 2800 6000 50  0001 C CNN
	1    2800 6000
	1    0    0    -1  
$EndComp
Wire Wire Line
	2900 5500 2500 5500
Wire Wire Line
	2500 5500 2500 5700
$Comp
L Device:C_Small C312
U 1 1 5D02D84A
P 2500 5800
F 0 "C312" H 2592 5846 50  0000 L CNN
F 1 "100n" H 2592 5755 50  0000 L CNN
F 2 "Capacitor_SMD:C_0603_1608Metric" H 2500 5800 50  0001 C CNN
F 3 "~" H 2500 5800 50  0001 C CNN
	1    2500 5800
	1    0    0    -1  
$EndComp
$Comp
L power:GND #PWR0339
U 1 1 5D02D9DE
P 2500 6000
F 0 "#PWR0339" H 2500 5750 50  0001 C CNN
F 1 "GND" H 2505 5827 50  0000 C CNN
F 2 "" H 2500 6000 50  0001 C CNN
F 3 "" H 2500 6000 50  0001 C CNN
	1    2500 6000
	1    0    0    -1  
$EndComp
Wire Wire Line
	2500 6000 2500 5900
$Comp
L Device:CP_Small C311
U 1 1 5D0352AF
P 2100 5800
F 0 "C311" H 2188 5846 50  0000 L CNN
F 1 "10u" H 2188 5755 50  0000 L CNN
F 2 "Capacitor_SMD:C_0805_2012Metric" H 2100 5800 50  0001 C CNN
F 3 "~" H 2100 5800 50  0001 C CNN
	1    2100 5800
	1    0    0    -1  
$EndComp
$Comp
L power:GND #PWR0338
U 1 1 5D0354D2
P 2100 6000
F 0 "#PWR0338" H 2100 5750 50  0001 C CNN
F 1 "GND" H 2105 5827 50  0000 C CNN
F 2 "" H 2100 6000 50  0001 C CNN
F 3 "" H 2100 6000 50  0001 C CNN
	1    2100 6000
	1    0    0    -1  
$EndComp
$Comp
L Device:R_Small R309
U 1 1 5D0355C3
P 2100 5400
F 0 "R309" H 2159 5446 50  0000 L CNN
F 1 "10K" H 2159 5355 50  0000 L CNN
F 2 "Resistor_SMD:R_0603_1608Metric" H 2100 5400 50  0001 C CNN
F 3 "~" H 2100 5400 50  0001 C CNN
	1    2100 5400
	1    0    0    -1  
$EndComp
Wire Wire Line
	2100 5600 2100 5700
Wire Wire Line
	2100 5600 2900 5600
Wire Wire Line
	2100 5900 2100 6000
Wire Wire Line
	2100 5600 2100 5500
Connection ~ 2100 5600
Wire Wire Line
	2100 5300 2100 5200
Wire Wire Line
	2900 4800 2800 4800
Wire Wire Line
	2800 4800 2800 4700
$Comp
L Device:C_Small C313
U 1 1 5D040116
P 3700 5800
F 0 "C313" H 3792 5846 50  0000 L CNN
F 1 "100n" H 3792 5755 50  0000 L CNN
F 2 "Capacitor_SMD:C_0603_1608Metric" H 3700 5800 50  0001 C CNN
F 3 "~" H 3700 5800 50  0001 C CNN
	1    3700 5800
	1    0    0    -1  
$EndComp
$Comp
L power:GND #PWR0342
U 1 1 5D04011C
P 3700 6000
F 0 "#PWR0342" H 3700 5750 50  0001 C CNN
F 1 "GND" H 3705 5827 50  0000 C CNN
F 2 "" H 3700 6000 50  0001 C CNN
F 3 "" H 3700 6000 50  0001 C CNN
	1    3700 6000
	1    0    0    -1  
$EndComp
$Comp
L power:+3V3 #PWR0337
U 1 1 5D040122
P 3700 5600
F 0 "#PWR0337" H 3700 5450 50  0001 C CNN
F 1 "+3V3" H 3715 5773 50  0000 C CNN
F 2 "" H 3700 5600 50  0001 C CNN
F 3 "" H 3700 5600 50  0001 C CNN
	1    3700 5600
	1    0    0    -1  
$EndComp
Wire Wire Line
	3700 5700 3700 5600
Wire Wire Line
	3700 6000 3700 5900
$Comp
L power:+3V3 #PWR0332
U 1 1 5D0425E9
P 2800 4700
F 0 "#PWR0332" H 2800 4550 50  0001 C CNN
F 1 "+3V3" H 2815 4873 50  0000 C CNN
F 2 "" H 2800 4700 50  0001 C CNN
F 3 "" H 2800 4700 50  0001 C CNN
	1    2800 4700
	1    0    0    -1  
$EndComp
Wire Wire Line
	2600 4900 2900 4900
Wire Wire Line
	2600 5000 2900 5000
Wire Wire Line
	2600 5100 2900 5100
Text Label 2600 4900 0    50   ~ 0
LCD_CLK
Text Label 2600 5100 0    50   ~ 0
LCD_D~C
Text Label 2600 5000 0    50   ~ 0
LCD_IN
$Comp
L power:+3V3 #PWR0334
U 1 1 5D052505
P 2100 5200
F 0 "#PWR0334" H 2100 5050 50  0001 C CNN
F 1 "+3V3" H 2115 5373 50  0000 C CNN
F 2 "" H 2100 5200 50  0001 C CNN
F 3 "" H 2100 5200 50  0001 C CNN
	1    2100 5200
	1    0    0    -1  
$EndComp
Wire Wire Line
	2900 5300 2700 5300
$Comp
L power:+3V3 #PWR0335
U 1 1 5D05505A
P 2700 5300
F 0 "#PWR0335" H 2700 5150 50  0001 C CNN
F 1 "+3V3" H 2715 5473 50  0000 C CNN
F 2 "" H 2700 5300 50  0001 C CNN
F 3 "" H 2700 5300 50  0001 C CNN
	1    2700 5300
	0    -1   -1   0   
$EndComp
$Comp
L Device:LED_Small D301
U 1 1 5D05548E
P 4700 5200
F 0 "D301" H 4700 5100 50  0000 C CNN
F 1 "LED" H 4700 5344 50  0000 C CNN
F 2 "LED_SMD:LED_0603_1608Metric" V 4700 5200 50  0001 C CNN
F 3 "~" V 4700 5200 50  0001 C CNN
	1    4700 5200
	0    1    -1   0   
$EndComp
$Comp
L Device:LED_Small D302
U 1 1 5D05FA69
P 5100 5200
F 0 "D302" H 5100 5100 50  0000 C CNN
F 1 "LED" H 5100 5344 50  0000 C CNN
F 2 "LED_SMD:LED_0603_1608Metric" V 5100 5200 50  0001 C CNN
F 3 "~" V 5100 5200 50  0001 C CNN
	1    5100 5200
	0    1    -1   0   
$EndComp
$Comp
L Device:LED_Small D303
U 1 1 5D0623C1
P 5500 5200
F 0 "D303" H 5500 5100 50  0000 C CNN
F 1 "LED" H 5500 5344 50  0000 C CNN
F 2 "LED_SMD:LED_0603_1608Metric" V 5500 5200 50  0001 C CNN
F 3 "~" V 5500 5200 50  0001 C CNN
	1    5500 5200
	0    1    -1   0   
$EndComp
$Comp
L Device:LED_Small D304
U 1 1 5D0623C7
P 5900 5200
F 0 "D304" H 5900 5100 50  0000 C CNN
F 1 "LED" H 5900 5344 50  0000 C CNN
F 2 "LED_SMD:LED_0603_1608Metric" V 5900 5200 50  0001 C CNN
F 3 "~" V 5900 5200 50  0001 C CNN
	1    5900 5200
	0    1    -1   0   
$EndComp
Wire Wire Line
	4700 5100 4700 5000
Wire Wire Line
	4700 5000 5100 5000
Wire Wire Line
	5100 5000 5100 5100
Wire Wire Line
	5100 5000 5300 5000
Wire Wire Line
	5500 5000 5500 5100
Connection ~ 5100 5000
Wire Wire Line
	5500 5000 5900 5000
Wire Wire Line
	5900 5000 5900 5100
Connection ~ 5500 5000
Wire Wire Line
	4700 5300 4700 5400
Wire Wire Line
	4700 5400 5100 5400
Wire Wire Line
	5900 5400 5900 5300
Wire Wire Line
	5500 5300 5500 5400
Connection ~ 5500 5400
Wire Wire Line
	5500 5400 5900 5400
Wire Wire Line
	5100 5300 5100 5400
Connection ~ 5100 5400
Wire Wire Line
	5100 5400 5300 5400
Wire Wire Line
	5300 5400 5300 5500
Connection ~ 5300 5400
Wire Wire Line
	5300 5400 5500 5400
Wire Wire Line
	5300 5000 5300 4900
Connection ~ 5300 5000
Wire Wire Line
	5300 5000 5500 5000
$Comp
L power:+3V3 #PWR0333
U 1 1 5D07CD9B
P 5300 4900
F 0 "#PWR0333" H 5300 4750 50  0001 C CNN
F 1 "+3V3" H 5315 5073 50  0000 C CNN
F 2 "" H 5300 4900 50  0001 C CNN
F 3 "" H 5300 4900 50  0001 C CNN
	1    5300 4900
	1    0    0    -1  
$EndComp
$Comp
L Transistor_BJT:MMBT3904 Q301
U 1 1 5D07D1F5
P 5200 5700
F 0 "Q301" H 5391 5746 50  0000 L CNN
F 1 "SS9013" H 5391 5655 50  0000 L CNN
F 2 "Package_TO_SOT_SMD:SOT-23" H 5400 5625 50  0001 L CIN
F 3 "https://www.fairchildsemi.com/datasheets/2N/2N3904.pdf" H 5200 5700 50  0001 L CNN
	1    5200 5700
	1    0    0    -1  
$EndComp
Wire Wire Line
	5000 5700 4900 5700
$Comp
L Device:R_Small R313
U 1 1 5D080BE2
P 4800 5700
F 0 "R313" V 4900 5700 50  0000 C CNN
F 1 "1K" V 4700 5700 50  0000 C CNN
F 2 "Resistor_SMD:R_0603_1608Metric" H 4800 5700 50  0001 C CNN
F 3 "~" H 4800 5700 50  0001 C CNN
	1    4800 5700
	0    1    -1   0   
$EndComp
Wire Wire Line
	4300 5700 4700 5700
Text Label 4300 5700 0    50   ~ 0
LCD_PWM
$Comp
L power:GND #PWR0343
U 1 1 5D0966E5
P 5300 6000
F 0 "#PWR0343" H 5300 5750 50  0001 C CNN
F 1 "GND" H 5305 5827 50  0000 C CNN
F 2 "" H 5300 6000 50  0001 C CNN
F 3 "" H 5300 6000 50  0001 C CNN
	1    5300 6000
	1    0    0    -1  
$EndComp
Wire Wire Line
	5300 6000 5300 5900
$Comp
L Handle:EC11E E301
U 1 1 5D0A25AF
P 8000 5100
F 0 "E301" H 8000 5587 60  0000 C CNN
F 1 "EC11E" H 8000 5481 60  0000 C CNN
F 2 "Extra:EC11E" H 8050 5100 60  0001 C CNN
F 3 "" H 8050 5100 60  0000 C CNN
	1    8000 5100
	1    0    0    -1  
$EndComp
Wire Wire Line
	7600 5100 7500 5100
Wire Wire Line
	8400 5100 8500 5100
Wire Wire Line
	8500 5100 8500 5200
Wire Wire Line
	8500 5200 8400 5200
Wire Wire Line
	8500 5200 8500 5300
Connection ~ 8500 5200
$Comp
L power:GND #PWR0336
U 1 1 5D0B2445
P 8500 5300
F 0 "#PWR0336" H 8500 5050 50  0001 C CNN
F 1 "GND" H 8505 5127 50  0000 C CNN
F 2 "" H 8500 5300 50  0001 C CNN
F 3 "" H 8500 5300 50  0001 C CNN
	1    8500 5300
	1    0    0    -1  
$EndComp
Wire Wire Line
	7500 5100 7500 6000
$Comp
L power:GND #PWR0346
U 1 1 5D0B65F8
P 7500 6000
F 0 "#PWR0346" H 7500 5750 50  0001 C CNN
F 1 "GND" H 7505 5827 50  0000 C CNN
F 2 "" H 7500 6000 50  0001 C CNN
F 3 "" H 7500 6000 50  0001 C CNN
	1    7500 6000
	1    0    0    -1  
$EndComp
$Comp
L Device:C_Small C315
U 1 1 5D0C2FF5
P 7200 5800
F 0 "C315" H 7292 5846 50  0000 L CNN
F 1 "10n" H 7292 5755 50  0000 L CNN
F 2 "Capacitor_SMD:C_0603_1608Metric" H 7200 5800 50  0001 C CNN
F 3 "~" H 7200 5800 50  0001 C CNN
	1    7200 5800
	1    0    0    -1  
$EndComp
$Comp
L Device:R_Small R311
U 1 1 5D0C31B1
P 7200 5400
F 0 "R311" H 7259 5446 50  0000 L CNN
F 1 "3K9" H 7259 5355 50  0000 L CNN
F 2 "Resistor_SMD:R_0603_1608Metric" H 7200 5400 50  0001 C CNN
F 3 "~" H 7200 5400 50  0001 C CNN
	1    7200 5400
	1    0    0    -1  
$EndComp
$Comp
L Device:R_Small R307
U 1 1 5D0D0010
P 7200 4800
F 0 "R307" H 7259 4846 50  0000 L CNN
F 1 "10K" H 7259 4755 50  0000 L CNN
F 2 "Resistor_SMD:R_0603_1608Metric" H 7200 4800 50  0001 C CNN
F 3 "~" H 7200 4800 50  0001 C CNN
	1    7200 4800
	1    0    0    -1  
$EndComp
$Comp
L power:+3V3 #PWR0330
U 1 1 5D0D0084
P 7200 4600
F 0 "#PWR0330" H 7200 4450 50  0001 C CNN
F 1 "+3V3" H 7215 4773 50  0000 C CNN
F 2 "" H 7200 4600 50  0001 C CNN
F 3 "" H 7200 4600 50  0001 C CNN
	1    7200 4600
	1    0    0    -1  
$EndComp
Wire Wire Line
	7200 4900 7200 5200
Wire Wire Line
	7200 5200 7600 5200
Connection ~ 7200 5200
Wire Wire Line
	7200 5200 7200 5300
Wire Wire Line
	7200 4700 7200 4600
Wire Wire Line
	7200 5700 7200 5600
Wire Wire Line
	7200 5900 7200 6000
$Comp
L power:GND #PWR0345
U 1 1 5D0E6436
P 7200 6000
F 0 "#PWR0345" H 7200 5750 50  0001 C CNN
F 1 "GND" H 7205 5827 50  0000 C CNN
F 2 "" H 7200 6000 50  0001 C CNN
F 3 "" H 7200 6000 50  0001 C CNN
	1    7200 6000
	1    0    0    -1  
$EndComp
$Comp
L Device:C_Small C314
U 1 1 5D0EAE22
P 6800 5800
F 0 "C314" H 6892 5846 50  0000 L CNN
F 1 "10n" H 6892 5755 50  0000 L CNN
F 2 "Capacitor_SMD:C_0603_1608Metric" H 6800 5800 50  0001 C CNN
F 3 "~" H 6800 5800 50  0001 C CNN
	1    6800 5800
	1    0    0    -1  
$EndComp
$Comp
L Device:R_Small R310
U 1 1 5D0EAE28
P 6800 5400
F 0 "R310" H 6859 5446 50  0000 L CNN
F 1 "3K9" H 6859 5355 50  0000 L CNN
F 2 "Resistor_SMD:R_0603_1608Metric" H 6800 5400 50  0001 C CNN
F 3 "~" H 6800 5400 50  0001 C CNN
	1    6800 5400
	1    0    0    -1  
$EndComp
$Comp
L Device:R_Small R306
U 1 1 5D0EAE2E
P 6800 4800
F 0 "R306" H 6859 4846 50  0000 L CNN
F 1 "10K" H 6859 4755 50  0000 L CNN
F 2 "Resistor_SMD:R_0603_1608Metric" H 6800 4800 50  0001 C CNN
F 3 "~" H 6800 4800 50  0001 C CNN
	1    6800 4800
	1    0    0    -1  
$EndComp
$Comp
L power:+3V3 #PWR0329
U 1 1 5D0EAE34
P 6800 4600
F 0 "#PWR0329" H 6800 4450 50  0001 C CNN
F 1 "+3V3" H 6815 4773 50  0000 C CNN
F 2 "" H 6800 4600 50  0001 C CNN
F 3 "" H 6800 4600 50  0001 C CNN
	1    6800 4600
	1    0    0    -1  
$EndComp
Wire Wire Line
	6800 4700 6800 4600
Wire Wire Line
	6800 5700 6800 5600
Wire Wire Line
	6800 5900 6800 6000
$Comp
L power:GND #PWR0344
U 1 1 5D0EAE41
P 6800 6000
F 0 "#PWR0344" H 6800 5750 50  0001 C CNN
F 1 "GND" H 6805 5827 50  0000 C CNN
F 2 "" H 6800 6000 50  0001 C CNN
F 3 "" H 6800 6000 50  0001 C CNN
	1    6800 6000
	1    0    0    -1  
$EndComp
Wire Wire Line
	6800 4900 6800 5000
Wire Wire Line
	6800 5000 7600 5000
Connection ~ 6800 5000
Wire Wire Line
	6800 5000 6800 5300
$Comp
L Device:C_Small C316
U 1 1 5D0F4D88
P 8700 5800
F 0 "C316" H 8792 5846 50  0000 L CNN
F 1 "100n" H 8792 5755 50  0000 L CNN
F 2 "Capacitor_SMD:C_0603_1608Metric" H 8700 5800 50  0001 C CNN
F 3 "~" H 8700 5800 50  0001 C CNN
	1    8700 5800
	1    0    0    -1  
$EndComp
$Comp
L Device:R_Small R312
U 1 1 5D0F4D8E
P 8700 5400
F 0 "R312" H 8759 5446 50  0000 L CNN
F 1 "10K" H 8759 5355 50  0000 L CNN
F 2 "Resistor_SMD:R_0603_1608Metric" H 8700 5400 50  0001 C CNN
F 3 "~" H 8700 5400 50  0001 C CNN
	1    8700 5400
	1    0    0    -1  
$EndComp
$Comp
L Device:R_Small R308
U 1 1 5D0F4D94
P 8700 4800
F 0 "R308" H 8759 4846 50  0000 L CNN
F 1 "10K" H 8759 4755 50  0000 L CNN
F 2 "Resistor_SMD:R_0603_1608Metric" H 8700 4800 50  0001 C CNN
F 3 "~" H 8700 4800 50  0001 C CNN
	1    8700 4800
	1    0    0    -1  
$EndComp
$Comp
L power:+3V3 #PWR0331
U 1 1 5D0F4D9A
P 8700 4600
F 0 "#PWR0331" H 8700 4450 50  0001 C CNN
F 1 "+3V3" H 8715 4773 50  0000 C CNN
F 2 "" H 8700 4600 50  0001 C CNN
F 3 "" H 8700 4600 50  0001 C CNN
	1    8700 4600
	1    0    0    -1  
$EndComp
Wire Wire Line
	8700 4700 8700 4600
Wire Wire Line
	8700 5700 8700 5600
Wire Wire Line
	8700 5900 8700 6000
$Comp
L power:GND #PWR0347
U 1 1 5D0F4DA3
P 8700 6000
F 0 "#PWR0347" H 8700 5750 50  0001 C CNN
F 1 "GND" H 8705 5827 50  0000 C CNN
F 2 "" H 8700 6000 50  0001 C CNN
F 3 "" H 8700 6000 50  0001 C CNN
	1    8700 6000
	1    0    0    -1  
$EndComp
Wire Wire Line
	8700 4900 8700 5000
Wire Wire Line
	8400 5000 8700 5000
Connection ~ 8700 5000
Wire Wire Line
	8700 5000 8700 5300
Wire Wire Line
	6800 5600 6500 5600
Connection ~ 6800 5600
Wire Wire Line
	6800 5600 6800 5500
Connection ~ 7200 5600
Wire Wire Line
	7200 5600 7200 5500
Text Label 6500 5600 0    50   ~ 0
ENC_A
Text Label 6900 5600 0    50   ~ 0
ENC_B
Wire Wire Line
	6900 5600 7200 5600
Text Label 8400 5600 0    50   ~ 0
ENC_P
Wire Wire Line
	8700 5600 8400 5600
Connection ~ 8700 5600
Wire Wire Line
	8700 5600 8700 5500
Wire Wire Line
	3400 3300 3800 3300
Connection ~ 3800 3300
Wire Wire Line
	5100 3300 5500 3300
Connection ~ 5500 3300
Text Notes 4650 4900 0    50   ~ 0
Imax: 20mAx4
Text Notes 2150 4750 0    50   ~ 0
Imax: 7m4A
Text GLabel 8100 1100 2    50   Input ~ 0
FAN_PWM
$Comp
L power:VDDA #PWR0130
U 1 1 5D0982D3
P 9200 1200
F 0 "#PWR0130" H 9200 1050 50  0001 C CNN
F 1 "VDDA" H 9217 1373 50  0000 C CNN
F 2 "" H 9200 1200 50  0001 C CNN
F 3 "" H 9200 1200 50  0001 C CNN
	1    9200 1200
	1    0    0    -1  
$EndComp
$EndSCHEMATC
