EESchema Schematic File Version 4
LIBS:project-cache
EELAYER 29 0
EELAYER END
$Descr A4 11693 8268
encoding utf-8
Sheet 2 3
Title ""
Date ""
Rev ""
Comp ""
Comment1 ""
Comment2 ""
Comment3 ""
Comment4 ""
$EndDescr
$Comp
L PWM:TL494* U?
U 1 1 5CEE7292
P 8300 3200
AR Path="/5CEE7292" Ref="U?"  Part="1" 
AR Path="/5CEE721E/5CEE7292" Ref="U201"  Part="1" 
F 0 "U201" H 7700 3750 60  0000 L CNN
F 1 "TL494*" H 8700 2650 60  0000 L CNN
F 2 "Package_SO:SOIC-16_3.9x9.9mm_P1.27mm" H 8550 3175 60  0001 C CNN
F 3 "" H 8550 3175 60  0000 C CNN
	1    8300 3200
	1    0    0    -1  
$EndComp
Wire Wire Line
	9000 3500 9100 3500
Wire Wire Line
	9100 3500 9100 4200
Wire Wire Line
	9000 3100 9100 3100
Wire Wire Line
	9100 3100 9100 3500
Connection ~ 9100 3500
$Comp
L power:GND #PWR0208
U 1 1 5CEE739E
P 9100 4200
F 0 "#PWR0208" H 9100 3950 50  0001 C CNN
F 1 "GND" H 9105 4027 50  0000 C CNN
F 2 "" H 9100 4200 50  0001 C CNN
F 3 "" H 9100 4200 50  0001 C CNN
	1    9100 4200
	1    0    0    -1  
$EndComp
Wire Wire Line
	9000 2900 9400 2900
Wire Wire Line
	9000 3300 9400 3300
Text Label 9400 2900 2    50   ~ 0
DRV_T1
Text Label 9400 3300 2    50   ~ 0
DRV_T2
Text Notes 800  2250 0    50   ~ 0
/* Oscillator */\n\nEQ[I[CH]]: I[CH] = U[CH] / R[T]$\nEQ[T]: T = U[CH] * C[T] / I[CH], EQ[I[CH]]$\nEQ[f[OSC]]: f[OSC] = 1 / (2 * T), EQ[T]$\n\nPR[TL494]: [U[CH]=3, U[REF]=5]$\nEQ[f[OSC]], PR[TL494], C[T]=1.5e-9, R[T]=12e3;\n/* 28 KHz */;
$Comp
L Device:C_Small C203
U 1 1 5CEE770D
P 8400 4000
F 0 "C203" H 8400 4100 50  0000 R CNN
F 1 "1n5" H 8350 3900 50  0000 R CNN
F 2 "Capacitor_SMD:C_0603_1608Metric" H 8400 4000 50  0001 C CNN
F 3 "~" H 8400 4000 50  0001 C CNN
	1    8400 4000
	1    0    0    -1  
$EndComp
Wire Wire Line
	8400 3900 8400 3800
Wire Wire Line
	8400 4100 8400 4200
$Comp
L power:GND #PWR0206
U 1 1 5CEE7822
P 8400 4200
F 0 "#PWR0206" H 8400 3950 50  0001 C CNN
F 1 "GND" H 8405 4027 50  0000 C CNN
F 2 "" H 8400 4200 50  0001 C CNN
F 3 "" H 8400 4200 50  0001 C CNN
	1    8400 4200
	1    0    0    -1  
$EndComp
$Comp
L power:GND #PWR0207
U 1 1 5CEE7831
P 8600 4200
F 0 "#PWR0207" H 8600 3950 50  0001 C CNN
F 1 "GND" H 8605 4027 50  0000 C CNN
F 2 "" H 8600 4200 50  0001 C CNN
F 3 "" H 8600 4200 50  0001 C CNN
	1    8600 4200
	1    0    0    -1  
$EndComp
$Comp
L Device:R_Small R210
U 1 1 5CEE78FA
P 8600 4000
F 0 "R210" H 8600 4100 50  0000 L CNN
F 1 "12K" H 8650 3950 50  0000 L CNN
F 2 "Resistor_SMD:R_0603_1608Metric" H 8600 4000 50  0001 C CNN
F 3 "~" H 8600 4000 50  0001 C CNN
	1    8600 4000
	1    0    0    -1  
$EndComp
Wire Wire Line
	8600 3900 8600 3800
Wire Wire Line
	8600 4200 8600 4100
Text Notes 800  1300 0    50   ~ 0
/* Dead-time */\nEQ[t[DTC]]: t[DTC] = (t[DTC[max]] - t[DTC[min]]) / (U[DTC[max]] - U[DTC[min]]) * U[DTC] + t[DTC[min]]$\nEQ[U[DTC]]: solve(EQ[t[DTC]], U[DTC])[1];\n\nPR[TL494]: [t[DTC[min]]=0.03, t[DTC[max]]=1, U[DTC[min]]=0, U[DTC[max]]=3.3]$\n\nEQ[t[DTC]], PR[TL494], U[DTC]=0.45;\nEQ[U[DTC]], PR[TL494], t[DTC]=0.16;\n/* t[DTC]=16% */
Wire Wire Line
	8200 3800 8200 4500
$Comp
L Device:R_Small R218
U 1 1 5CEE7EA9
P 8900 4700
F 0 "R218" H 8950 4750 50  0000 L CNN
F 1 "1K2" H 8950 4650 50  0000 L CNN
F 2 "Resistor_SMD:R_0603_1608Metric" H 8900 4700 50  0001 C CNN
F 3 "~" H 8900 4700 50  0001 C CNN
	1    8900 4700
	1    0    0    -1  
$EndComp
$Comp
L Device:R_Small R214
U 1 1 5CEE7EFD
P 8900 4300
F 0 "R214" H 8850 4350 50  0000 R CNN
F 1 "12K" H 8850 4250 50  0000 R CNN
F 2 "Resistor_SMD:R_0603_1608Metric" H 8900 4300 50  0001 C CNN
F 3 "~" H 8900 4300 50  0001 C CNN
	1    8900 4300
	1    0    0    -1  
$EndComp
Wire Wire Line
	8900 4500 8900 4400
Wire Wire Line
	8200 4500 8900 4500
Wire Wire Line
	8900 4600 8900 4500
Connection ~ 8900 4500
Wire Wire Line
	8900 4800 8900 4900
Wire Wire Line
	8900 4200 8900 3900
Text Label 8900 3900 3    50   ~ 0
V_REF
Text Label 8600 2300 3    50   ~ 0
V_REF
Wire Wire Line
	8600 2600 8600 2300
Wire Wire Line
	8400 2300 8400 2600
Text Label 8400 2300 3    50   ~ 0
V_REF
Wire Wire Line
	8000 2600 8000 2500
Wire Wire Line
	8000 3800 8000 4200
$Comp
L power:GND #PWR0205
U 1 1 5CEEA5B7
P 8000 4200
F 0 "#PWR0205" H 8000 3950 50  0001 C CNN
F 1 "GND" H 8005 4027 50  0000 C CNN
F 2 "" H 8000 4200 50  0001 C CNN
F 3 "" H 8000 4200 50  0001 C CNN
	1    8000 4200
	1    0    0    -1  
$EndComp
$Comp
L power:+12V #PWR0202
U 1 1 5CEEB171
P 8000 2500
F 0 "#PWR0202" H 8000 2350 50  0001 C CNN
F 1 "+12V" H 8015 2673 50  0000 C CNN
F 2 "" H 8000 2500 50  0001 C CNN
F 3 "" H 8000 2500 50  0001 C CNN
	1    8000 2500
	1    0    0    -1  
$EndComp
$Comp
L Device:C_Small C204
U 1 1 5CEEBAEA
P 9400 4000
F 0 "C204" H 9450 4100 50  0000 L CNN
F 1 "100n" H 9450 3900 50  0000 L CNN
F 2 "Capacitor_SMD:C_0603_1608Metric" H 9400 4000 50  0001 C CNN
F 3 "~" H 9400 4000 50  0001 C CNN
	1    9400 4000
	1    0    0    -1  
$EndComp
Wire Wire Line
	9400 4100 9400 4200
Wire Wire Line
	9400 3900 9400 3550
Text Label 9400 3550 3    50   ~ 0
V_REF
$Comp
L power:GND #PWR0209
U 1 1 5CEEC44C
P 9400 4200
F 0 "#PWR0209" H 9400 3950 50  0001 C CNN
F 1 "GND" H 9405 4027 50  0000 C CNN
F 2 "" H 9400 4200 50  0001 C CNN
F 3 "" H 9400 4200 50  0001 C CNN
	1    9400 4200
	1    0    0    -1  
$EndComp
Wire Wire Line
	8200 2600 8200 2200
Wire Wire Line
	8200 2200 7400 2200
Wire Wire Line
	7400 2200 7400 2300
$Comp
L Device:C_Small C202
U 1 1 5CEED09D
P 7400 2400
F 0 "C202" H 7500 2450 50  0000 L CNN
F 1 "10n" H 7500 2350 50  0000 L CNN
F 2 "Capacitor_SMD:C_0603_1608Metric" H 7400 2400 50  0001 C CNN
F 3 "~" H 7400 2400 50  0001 C CNN
	1    7400 2400
	1    0    0    -1  
$EndComp
$Comp
L Device:R_Small R203
U 1 1 5CEED137
P 7400 2700
F 0 "R203" H 7450 2750 50  0000 L CNN
F 1 "33K" H 7450 2650 50  0000 L CNN
F 2 "Resistor_SMD:R_0603_1608Metric" H 7400 2700 50  0001 C CNN
F 3 "~" H 7400 2700 50  0001 C CNN
	1    7400 2700
	1    0    0    -1  
$EndComp
Wire Wire Line
	7400 2600 7400 2500
Wire Wire Line
	7400 3100 7600 3100
Wire Wire Line
	7400 2800 7400 3100
$Comp
L Device:C_Small C201
U 1 1 5CEF10EE
P 7000 2400
F 0 "C201" H 7100 2450 50  0000 L CNN
F 1 "10n" H 7100 2350 50  0000 L CNN
F 2 "Capacitor_SMD:C_0603_1608Metric" H 7000 2400 50  0001 C CNN
F 3 "~" H 7000 2400 50  0001 C CNN
	1    7000 2400
	1    0    0    -1  
$EndComp
$Comp
L Device:R_Small R202
U 1 1 5CEF1116
P 7000 2700
F 0 "R202" H 7050 2750 50  0000 L CNN
F 1 "33K" H 7050 2650 50  0000 L CNN
F 2 "Resistor_SMD:R_0603_1608Metric" H 7000 2700 50  0001 C CNN
F 3 "~" H 7000 2700 50  0001 C CNN
	1    7000 2700
	1    0    0    -1  
$EndComp
Wire Wire Line
	7400 2200 7000 2200
Wire Wire Line
	7000 2200 7000 2300
Connection ~ 7400 2200
Wire Wire Line
	7000 2500 7000 2600
Wire Wire Line
	7000 2800 7000 3500
Wire Wire Line
	7000 3500 7600 3500
Wire Wire Line
	7600 3300 7400 3300
Wire Wire Line
	7400 3300 7400 4200
$Comp
L power:GND #PWR0204
U 1 1 5CEF40EF
P 7400 4200
F 0 "#PWR0204" H 7400 3950 50  0001 C CNN
F 1 "GND" H 7405 4027 50  0000 C CNN
F 2 "" H 7400 4200 50  0001 C CNN
F 3 "" H 7400 4200 50  0001 C CNN
	1    7400 4200
	1    0    0    -1  
$EndComp
$Comp
L Device:R_Small R201
U 1 1 5CEF41F7
P 6100 2700
F 0 "R201" H 6050 2750 50  0000 R CNN
F 1 "22K" H 6050 2650 50  0000 R CNN
F 2 "Resistor_SMD:R_0603_1608Metric" H 6100 2700 50  0001 C CNN
F 3 "~" H 6100 2700 50  0001 C CNN
	1    6100 2700
	1    0    0    -1  
$EndComp
$Comp
L Device:R_Small R204
U 1 1 5CEF4233
P 6100 3100
F 0 "R204" H 6050 3150 50  0000 R CNN
F 1 "3K3" H 6050 3050 50  0000 R CNN
F 2 "Resistor_SMD:R_0603_1608Metric" H 6100 3100 50  0001 C CNN
F 3 "~" H 6100 3100 50  0001 C CNN
	1    6100 3100
	1    0    0    -1  
$EndComp
Wire Wire Line
	6100 3000 6100 2900
$Comp
L power:GND #PWR0203
U 1 1 5CEF5C09
P 6000 3350
F 0 "#PWR0203" H 6000 3100 50  0001 C CNN
F 1 "GND" V 6005 3222 50  0000 R CNN
F 2 "" H 6000 3350 50  0001 C CNN
F 3 "" H 6000 3350 50  0001 C CNN
	1    6000 3350
	0    1    1    0   
$EndComp
Connection ~ 6100 2900
Wire Wire Line
	6100 2900 6100 2800
Wire Wire Line
	9600 3000 9400 3000
Wire Wire Line
	9400 3000 9400 2900
Wire Wire Line
	9600 3100 9400 3100
Wire Wire Line
	9400 3100 9400 3300
$Comp
L power:+VDC #PWR0201
U 1 1 5CEF8C63
P 6100 2500
F 0 "#PWR0201" H 6100 2400 50  0001 C CNN
F 1 "+VDC" H 6100 2775 50  0000 C CNN
F 2 "" H 6100 2500 50  0001 C CNN
F 3 "" H 6100 2500 50  0001 C CNN
	1    6100 2500
	1    0    0    -1  
$EndComp
Text Label 6200 2900 0    50   ~ 0
U_SENS
$Comp
L Device:R_Small R206
U 1 1 5CEFC5FE
P 5800 3700
F 0 "R206" H 5750 3750 50  0000 R CNN
F 1 "R01" H 5750 3650 50  0000 R CNN
F 2 "Resistor_SMD:R_2512_6332Metric" H 5800 3700 50  0001 C CNN
F 3 "~" H 5800 3700 50  0001 C CNN
	1    5800 3700
	1    0    0    -1  
$EndComp
$Comp
L power:-VSW #PWR0210
U 1 1 5CEFC91D
P 6100 4800
F 0 "#PWR0210" H 6100 4900 50  0001 C CNN
F 1 "-VSW" H 6115 4973 50  0000 C CNN
F 2 "" H 6100 4800 50  0001 C CNN
F 3 "" H 6100 4800 50  0001 C CNN
	1    6100 4800
	-1   0    0    1   
$EndComp
Wire Wire Line
	5800 3600 5800 3500
Wire Wire Line
	5800 3500 6100 3500
Wire Wire Line
	6100 3500 6100 3600
Connection ~ 6100 3500
Wire Wire Line
	5800 3800 5800 3900
Wire Wire Line
	5800 3900 6100 3900
Wire Wire Line
	6100 3900 6100 3800
Wire Wire Line
	6100 3900 6100 4000
Connection ~ 6100 3900
Wire Wire Line
	5800 3900 5800 4000
Connection ~ 5800 3900
Wire Wire Line
	5800 4200 5800 4300
Wire Wire Line
	6100 4200 6100 4300
Wire Wire Line
	6100 4300 5800 4300
Connection ~ 6100 4300
Wire Wire Line
	6100 4300 6100 4400
Connection ~ 5800 4300
Wire Wire Line
	5800 4300 5800 4400
Wire Wire Line
	5800 4600 5800 4700
Wire Wire Line
	5800 4700 6100 4700
Wire Wire Line
	6100 4700 6100 4600
Wire Wire Line
	6100 4700 6100 4800
Connection ~ 6100 4700
Wire Wire Line
	6100 3500 6400 3500
Wire Wire Line
	6400 3500 6400 3600
Wire Wire Line
	6400 3800 6400 3900
Wire Wire Line
	6400 3900 6100 3900
Wire Wire Line
	6400 3900 6400 4000
Connection ~ 6400 3900
Wire Wire Line
	6100 4300 6400 4300
Wire Wire Line
	6400 4300 6400 4200
Wire Wire Line
	6400 4300 6400 4400
Connection ~ 6400 4300
Wire Wire Line
	6100 4700 6400 4700
Wire Wire Line
	6400 4700 6400 4600
$Comp
L Device:R_Small R209
U 1 1 5CF30D11
P 6700 3700
F 0 "R209" H 6650 3750 50  0000 R CNN
F 1 "1K" H 6650 3650 50  0000 R CNN
F 2 "Resistor_SMD:R_0603_1608Metric" H 6700 3700 50  0001 C CNN
F 3 "~" H 6700 3700 50  0001 C CNN
	1    6700 3700
	1    0    0    -1  
$EndComp
Wire Wire Line
	6700 3600 6700 3500
Text Label 7100 3500 0    50   ~ 0
I_SENS
$Comp
L power:GND #PWR0211
U 1 1 5CF51938
P 8900 4900
F 0 "#PWR0211" H 8900 4650 50  0001 C CNN
F 1 "GND" H 8905 4727 50  0000 C CNN
F 2 "" H 8900 4900 50  0001 C CNN
F 3 "" H 8900 4900 50  0001 C CNN
	1    8900 4900
	1    0    0    -1  
$EndComp
$Comp
L Device:R_Small R207
U 1 1 5CF53CC4
P 6100 3700
F 0 "R207" H 6050 3750 50  0000 R CNN
F 1 "R01" H 6050 3650 50  0000 R CNN
F 2 "Resistor_SMD:R_2512_6332Metric" H 6100 3700 50  0001 C CNN
F 3 "~" H 6100 3700 50  0001 C CNN
	1    6100 3700
	1    0    0    -1  
$EndComp
$Comp
L Device:R_Small R208
U 1 1 5CF53D02
P 6400 3700
F 0 "R208" H 6350 3750 50  0000 R CNN
F 1 "R01" H 6350 3650 50  0000 R CNN
F 2 "Resistor_SMD:R_2512_6332Metric" H 6400 3700 50  0001 C CNN
F 3 "~" H 6400 3700 50  0001 C CNN
	1    6400 3700
	1    0    0    -1  
$EndComp
$Comp
L Device:R_Small R211
U 1 1 5CF53D3E
P 5800 4100
F 0 "R211" H 5750 4150 50  0000 R CNN
F 1 "R01" H 5750 4050 50  0000 R CNN
F 2 "Resistor_SMD:R_2512_6332Metric" H 5800 4100 50  0001 C CNN
F 3 "~" H 5800 4100 50  0001 C CNN
	1    5800 4100
	1    0    0    -1  
$EndComp
$Comp
L Device:R_Small R212
U 1 1 5CF53D98
P 6100 4100
F 0 "R212" H 6050 4150 50  0000 R CNN
F 1 "R01" H 6050 4050 50  0000 R CNN
F 2 "Resistor_SMD:R_2512_6332Metric" H 6100 4100 50  0001 C CNN
F 3 "~" H 6100 4100 50  0001 C CNN
	1    6100 4100
	1    0    0    -1  
$EndComp
$Comp
L Device:R_Small R213
U 1 1 5CF53DD8
P 6400 4100
F 0 "R213" H 6350 4150 50  0000 R CNN
F 1 "R01" H 6350 4050 50  0000 R CNN
F 2 "Resistor_SMD:R_2512_6332Metric" H 6400 4100 50  0001 C CNN
F 3 "~" H 6400 4100 50  0001 C CNN
	1    6400 4100
	1    0    0    -1  
$EndComp
$Comp
L Device:R_Small R215
U 1 1 5CF53E1A
P 5800 4500
F 0 "R215" H 5750 4550 50  0000 R CNN
F 1 "R01" H 5750 4450 50  0000 R CNN
F 2 "Resistor_SMD:R_2512_6332Metric" H 5800 4500 50  0001 C CNN
F 3 "~" H 5800 4500 50  0001 C CNN
	1    5800 4500
	1    0    0    -1  
$EndComp
$Comp
L Device:R_Small R216
U 1 1 5CF53E76
P 6100 4500
F 0 "R216" H 6050 4550 50  0000 R CNN
F 1 "R01" H 6050 4450 50  0000 R CNN
F 2 "Resistor_SMD:R_2512_6332Metric" H 6100 4500 50  0001 C CNN
F 3 "~" H 6100 4500 50  0001 C CNN
	1    6100 4500
	1    0    0    -1  
$EndComp
$Comp
L Device:R_Small R217
U 1 1 5CF53EC0
P 6400 4500
F 0 "R217" H 6350 4550 50  0000 R CNN
F 1 "R01" H 6350 4450 50  0000 R CNN
F 2 "Resistor_SMD:R_2512_6332Metric" H 6400 4500 50  0001 C CNN
F 3 "~" H 6400 4500 50  0001 C CNN
	1    6400 4500
	1    0    0    -1  
$EndComp
Wire Wire Line
	7400 3100 7300 3100
Connection ~ 7400 3100
$Comp
L Device:R_Small R205
U 1 1 5CF6D904
P 6700 3300
F 0 "R205" H 6650 3350 50  0000 R CNN
F 1 "15K" H 6650 3250 50  0000 R CNN
F 2 "Resistor_SMD:R_0603_1608Metric" H 6700 3300 50  0001 C CNN
F 3 "~" H 6700 3300 50  0001 C CNN
	1    6700 3300
	1    0    0    -1  
$EndComp
Wire Wire Line
	6700 3500 6700 3400
Wire Wire Line
	6700 3200 6700 3100
Wire Wire Line
	6700 3100 6600 3100
Connection ~ 6700 3500
Text Notes 800  3450 0    50   ~ 0
/* Voltage regulation */\n\nEQ[U[MAX]]: solve(U[MAX] / (R[L] + R[H]) = U[REF[MAX]] / R[L], U[MAX])[1]$\nEQ[U[STEP]]: U[STEP] = U[MAX] / N[DAC], EQ[U[MAX]]$\n\nPR[0]: [U[REF[MAX]]=3.3, R[L]=3.3e3, R[H]=22e3, N[DAC]=2^16]$\n\nEQ[U[MAX]], PR[0];\nEQ[U[STEP]], PR[0];\n\n/* U[MAX]=25.3V, U[STEP]=0.4mV */
Wire Wire Line
	6100 3350 6000 3350
Wire Wire Line
	6100 3200 6100 3350
Connection ~ 6100 3350
Wire Wire Line
	6100 3350 6100 3500
Wire Wire Line
	6400 4700 6700 4700
Wire Wire Line
	6700 4700 6700 3800
Connection ~ 6400 4700
Text Notes 800  4800 0    50   ~ 0
/* Current regulation */\n\nEQ[I[MAX]]: solve(I[MAX] * R[SH] / R[S] = U[REF[MAX]] / R[D], I[MAX])[1]$\nEQ[U[SH[MAX]]]: U[SH[MAX]] = I[MAX] * R[SH], EQ[I[MAX]]$\nEQ[I[STEP]]: I[STEP] = I[MAX] / N[DAC], EQ[I[MAX]]$\n\nPR[0]: [U[REF[MAX]]=3.3, R[S]=1e3, R[D]=15e3, R[SH]=0.01, N[DAC]=2^12]$\n\nEQ[I[MAX]], PR[0];\nEQ[U[SH[MAX]]], PR[0];\nEQ[I[STEP]], PR[0];\n\n/* I[MAX]=22A, U[SH[MAX]]=0.22, I[STEP]=5.4mA */;
Text Notes 6150 2650 0    50   ~ 0
R[H]
Text Notes 6150 3050 0    50   ~ 0
R[L]
Text Notes 6750 3300 0    50   ~ 0
R[D]
Text Notes 6750 3700 0    50   ~ 0
R[S]
Text Notes 5350 4100 0    50   ~ 0
R[SH]
Wire Notes Line
	5700 3500 5500 3500
Wire Notes Line
	5500 3500 5500 4000
Wire Notes Line
	5500 4150 5500 4700
Wire Notes Line
	5500 4700 5700 4700
Text GLabel 6600 3100 0    50   Input ~ 0
I_REF
Text GLabel 7300 3100 0    50   Input ~ 0
U_REF
Wire Wire Line
	6700 3500 7000 3500
Connection ~ 7000 3500
Wire Wire Line
	6100 2900 7600 2900
$Comp
L Connector:Conn_01x03_Male J201
U 1 1 5CEF716B
P 9800 3100
F 0 "J201" H 9772 3030 50  0000 R CNN
F 1 "DRV_T" H 9772 3121 50  0000 R CNN
F 2 "Connector_Molex:Molex_KK-254_AE-6410-03A_1x03_P2.54mm_Vertical" H 9800 3100 50  0001 C CNN
F 3 "~" H 9800 3100 50  0001 C CNN
	1    9800 3100
	-1   0    0    1   
$EndComp
Wire Wire Line
	9600 3200 9500 3200
Wire Wire Line
	9500 3200 9500 3300
$Comp
L power:GND #PWR0127
U 1 1 5CEFE1E7
P 9500 3300
F 0 "#PWR0127" H 9500 3050 50  0001 C CNN
F 1 "GND" H 9505 3127 50  0000 C CNN
F 2 "" H 9500 3300 50  0001 C CNN
F 3 "" H 9500 3300 50  0001 C CNN
	1    9500 3300
	1    0    0    -1  
$EndComp
Wire Wire Line
	6100 2500 6100 2600
$EndSCHEMATC
