EESchema Schematic File Version 4
LIBS:project-cache
EELAYER 29 0
EELAYER END
$Descr A4 11693 8268
encoding utf-8
Sheet 1 3
Title ""
Date ""
Rev ""
Comp ""
Comment1 ""
Comment2 ""
Comment3 ""
Comment4 ""
$EndDescr
$Sheet
S 2500 3300 2700 800 
U 5CEE721E
F0 "Driver" 50
F1 "driver.sch" 50
$EndSheet
$Sheet
S 2500 1700 2700 800 
U 5CFF53BB
F0 "Controller" 50
F1 "controller.sch" 50
$EndSheet
$Comp
L Regulator_Linear:LM78M05_TO252 U101
U 1 1 5D16519B
P 6800 2100
F 0 "U101" H 6800 2342 50  0000 C CNN
F 1 "CJ78M12" H 6800 2251 50  0000 C CNN
F 2 "Package_TO_SOT_SMD:TO-252-2" H 6800 2325 50  0001 C CIN
F 3 "http://www.fairchildsemi.com/ds/LM/LM78M05.pdf" H 6800 2050 50  0001 C CNN
	1    6800 2100
	1    0    0    -1  
$EndComp
$Comp
L Device:C_Small C102
U 1 1 5CEFF0E7
P 7500 2200
F 0 "C102" H 7592 2246 50  0000 L CNN
F 1 "100n" H 7592 2155 50  0000 L CNN
F 2 "Capacitor_SMD:C_0805_2012Metric" H 7500 2200 50  0001 C CNN
F 3 "~" H 7500 2200 50  0001 C CNN
	1    7500 2200
	1    0    0    -1  
$EndComp
$Comp
L power:GND #PWR0107
U 1 1 5CEFF193
P 7500 2400
F 0 "#PWR0107" H 7500 2150 50  0001 C CNN
F 1 "GND" H 7505 2227 50  0000 C CNN
F 2 "" H 7500 2400 50  0001 C CNN
F 3 "" H 7500 2400 50  0001 C CNN
	1    7500 2400
	1    0    0    -1  
$EndComp
Wire Wire Line
	7500 2400 7500 2300
Wire Wire Line
	7100 2100 7200 2100
Wire Wire Line
	7200 2100 7200 2000
Wire Wire Line
	6500 2100 6400 2100
Wire Wire Line
	6400 2100 6400 2000
Wire Wire Line
	6800 2400 6800 2500
$Comp
L power:GND #PWR0108
U 1 1 5CEFF207
P 6800 2500
F 0 "#PWR0108" H 6800 2250 50  0001 C CNN
F 1 "GND" H 6805 2327 50  0000 C CNN
F 2 "" H 6800 2500 50  0001 C CNN
F 3 "" H 6800 2500 50  0001 C CNN
	1    6800 2500
	1    0    0    -1  
$EndComp
Wire Wire Line
	7500 2000 7500 2100
$Comp
L Device:C_Small C101
U 1 1 5CEFF3B9
P 6100 2200
F 0 "C101" H 6192 2246 50  0000 L CNN
F 1 "330n" H 6192 2155 50  0000 L CNN
F 2 "Capacitor_SMD:C_0805_2012Metric" H 6100 2200 50  0001 C CNN
F 3 "~" H 6100 2200 50  0001 C CNN
	1    6100 2200
	1    0    0    -1  
$EndComp
$Comp
L power:GND #PWR0106
U 1 1 5CEFF3BF
P 6100 2400
F 0 "#PWR0106" H 6100 2150 50  0001 C CNN
F 1 "GND" H 6105 2227 50  0000 C CNN
F 2 "" H 6100 2400 50  0001 C CNN
F 3 "" H 6100 2400 50  0001 C CNN
	1    6100 2400
	1    0    0    -1  
$EndComp
Wire Wire Line
	6100 2400 6100 2300
Wire Wire Line
	6100 2000 6100 2100
$Comp
L power:VBUS #PWR0101
U 1 1 5CEFF66A
P 6100 2000
F 0 "#PWR0101" H 6100 1850 50  0001 C CNN
F 1 "VBUS" H 6115 2173 50  0000 C CNN
F 2 "" H 6100 2000 50  0001 C CNN
F 3 "" H 6100 2000 50  0001 C CNN
	1    6100 2000
	1    0    0    -1  
$EndComp
$Comp
L power:VBUS #PWR0102
U 1 1 5CEFF682
P 6400 2000
F 0 "#PWR0102" H 6400 1850 50  0001 C CNN
F 1 "VBUS" H 6415 2173 50  0000 C CNN
F 2 "" H 6400 2000 50  0001 C CNN
F 3 "" H 6400 2000 50  0001 C CNN
	1    6400 2000
	1    0    0    -1  
$EndComp
$Comp
L Transistor_BJT:MMBT3904 Q?
U 1 1 5CF06A8D
P 4000 5400
AR Path="/5CFF53BB/5CF06A8D" Ref="Q?"  Part="1" 
AR Path="/5CF06A8D" Ref="Q101"  Part="1" 
F 0 "Q101" H 4200 5450 50  0000 L CNN
F 1 "SS9013" H 4200 5350 50  0000 L CNN
F 2 "Package_TO_SOT_SMD:SOT-23" H 4200 5325 50  0001 L CIN
F 3 "https://www.fairchildsemi.com/datasheets/2N/2N3904.pdf" H 4000 5400 50  0001 L CNN
	1    4000 5400
	1    0    0    -1  
$EndComp
Wire Wire Line
	3800 5400 3700 5400
$Comp
L Device:R_Small R?
U 1 1 5CF06A95
P 3600 5400
AR Path="/5CFF53BB/5CF06A95" Ref="R?"  Part="1" 
AR Path="/5CF06A95" Ref="R101"  Part="1" 
F 0 "R101" V 3700 5400 50  0000 C CNN
F 1 "1K" V 3500 5400 50  0000 C CNN
F 2 "Resistor_SMD:R_0603_1608Metric" H 3600 5400 50  0001 C CNN
F 3 "~" H 3600 5400 50  0001 C CNN
	1    3600 5400
	0    1    -1   0   
$EndComp
Wire Wire Line
	3400 5400 3500 5400
$Comp
L power:GND #PWR?
U 1 1 5CF06A9E
P 4100 5700
AR Path="/5CFF53BB/5CF06A9E" Ref="#PWR?"  Part="1" 
AR Path="/5CF06A9E" Ref="#PWR0113"  Part="1" 
F 0 "#PWR0113" H 4100 5450 50  0001 C CNN
F 1 "GND" H 4105 5527 50  0000 C CNN
F 2 "" H 4100 5700 50  0001 C CNN
F 3 "" H 4100 5700 50  0001 C CNN
	1    4100 5700
	1    0    0    -1  
$EndComp
Wire Wire Line
	4100 5700 4100 5600
Text GLabel 3400 5400 0    50   Input ~ 0
FAN_PWM
Wire Wire Line
	4100 5200 4100 5100
Wire Wire Line
	4100 5100 4400 5100
$Comp
L Connector:Conn_01x03_Male J103
U 1 1 5CF06D97
P 4600 5000
F 0 "J103" H 4573 4880 50  0000 R CNN
F 1 "FAN" H 4573 4971 50  0000 R CNN
F 2 "Connector_Molex:Molex_KK-254_AE-6410-03A_1x03_P2.54mm_Vertical" H 4600 5000 50  0001 C CNN
F 3 "~" H 4600 5000 50  0001 C CNN
	1    4600 5000
	-1   0    0    1   
$EndComp
Wire Wire Line
	4400 5000 4100 5000
Wire Wire Line
	4100 5000 4100 4900
$Comp
L power:VBUS #PWR0111
U 1 1 5CF06F41
P 4100 4900
F 0 "#PWR0111" H 4100 4750 50  0001 C CNN
F 1 "VBUS" H 4115 5073 50  0000 C CNN
F 2 "" H 4100 4900 50  0001 C CNN
F 3 "" H 4100 4900 50  0001 C CNN
	1    4100 4900
	1    0    0    -1  
$EndComp
$Comp
L Connector:Conn_01x02_Male J102
U 1 1 5CF0A488
P 9000 3100
F 0 "J102" H 8973 2980 50  0000 R CNN
F 1 "GND" H 8973 3071 50  0000 R CNN
F 2 "Extra:DG301-5.0-02P" H 9000 3100 50  0001 C CNN
F 3 "~" H 9000 3100 50  0001 C CNN
	1    9000 3100
	-1   0    0    -1  
$EndComp
Wire Wire Line
	8800 3200 8700 3200
Wire Wire Line
	8700 3200 8700 3300
Wire Wire Line
	8800 3100 8700 3100
$Comp
L power:-VSW #PWR0112
U 1 1 5CF0A896
P 8700 3300
F 0 "#PWR0112" H 8700 3400 50  0001 C CNN
F 1 "-VSW" H 8715 3473 50  0000 C CNN
F 2 "" H 8700 3300 50  0001 C CNN
F 3 "" H 8700 3300 50  0001 C CNN
	1    8700 3300
	-1   0    0    1   
$EndComp
$Comp
L power:GND #PWR0110
U 1 1 5CF0A91A
P 8700 3100
F 0 "#PWR0110" H 8700 2850 50  0001 C CNN
F 1 "GND" V 8705 2972 50  0000 R CNN
F 2 "" H 8700 3100 50  0001 C CNN
F 3 "" H 8700 3100 50  0001 C CNN
	1    8700 3100
	0    1    1    0   
$EndComp
$Comp
L Connector:Conn_01x02_Female J101
U 1 1 5CF0B7FA
P 9000 2500
F 0 "J101" H 9028 2476 50  0000 L CNN
F 1 "PWR" H 9028 2385 50  0000 L CNN
F 2 "Connector_Molex:Molex_KK-254_AE-6410-02A_1x02_P2.54mm_Vertical" H 9000 2500 50  0001 C CNN
F 3 "~" H 9000 2500 50  0001 C CNN
	1    9000 2500
	1    0    0    1   
$EndComp
$Comp
L power:GND #PWR0109
U 1 1 5CF0B85E
P 8700 2600
F 0 "#PWR0109" H 8700 2350 50  0001 C CNN
F 1 "GND" H 8705 2427 50  0000 C CNN
F 2 "" H 8700 2600 50  0001 C CNN
F 3 "" H 8700 2600 50  0001 C CNN
	1    8700 2600
	1    0    0    -1  
$EndComp
Wire Wire Line
	8700 2600 8700 2500
Wire Wire Line
	8800 2500 8700 2500
Wire Wire Line
	8800 2400 8700 2400
Wire Wire Line
	8700 2400 8700 2300
$Comp
L power:VBUS #PWR0105
U 1 1 5CF0BDDE
P 8700 2300
F 0 "#PWR0105" H 8700 2150 50  0001 C CNN
F 1 "VBUS" H 8715 2473 50  0000 C CNN
F 2 "" H 8700 2300 50  0001 C CNN
F 3 "" H 8700 2300 50  0001 C CNN
	1    8700 2300
	1    0    0    -1  
$EndComp
$Comp
L Device:CP_Small C103
U 1 1 5CF0DD6B
P 7900 2200
F 0 "C103" H 7988 2246 50  0000 L CNN
F 1 "100uF 35V" H 7988 2155 50  0000 L CNN
F 2 "Capacitor_SMD:C_Elec_6.3x7.7" H 7900 2200 50  0001 C CNN
F 3 "~" H 7900 2200 50  0001 C CNN
	1    7900 2200
	1    0    0    -1  
$EndComp
$Comp
L power:GND #PWR0115
U 1 1 5CF0DE17
P 7900 2400
F 0 "#PWR0115" H 7900 2150 50  0001 C CNN
F 1 "GND" H 7905 2227 50  0000 C CNN
F 2 "" H 7900 2400 50  0001 C CNN
F 3 "" H 7900 2400 50  0001 C CNN
	1    7900 2400
	1    0    0    -1  
$EndComp
Wire Wire Line
	7900 2400 7900 2300
Wire Wire Line
	7900 2000 7900 2100
$Comp
L power:+12V #PWR0103
U 1 1 5CF0E5AF
P 7200 2000
F 0 "#PWR0103" H 7200 1850 50  0001 C CNN
F 1 "+12V" H 7215 2173 50  0000 C CNN
F 2 "" H 7200 2000 50  0001 C CNN
F 3 "" H 7200 2000 50  0001 C CNN
	1    7200 2000
	1    0    0    -1  
$EndComp
$Comp
L power:+12V #PWR0104
U 1 1 5CF0E5D3
P 7500 2000
F 0 "#PWR0104" H 7500 1850 50  0001 C CNN
F 1 "+12V" H 7515 2173 50  0000 C CNN
F 2 "" H 7500 2000 50  0001 C CNN
F 3 "" H 7500 2000 50  0001 C CNN
	1    7500 2000
	1    0    0    -1  
$EndComp
$Comp
L power:+12V #PWR0114
U 1 1 5CF0E5F0
P 7900 2000
F 0 "#PWR0114" H 7900 1850 50  0001 C CNN
F 1 "+12V" H 7915 2173 50  0000 C CNN
F 2 "" H 7900 2000 50  0001 C CNN
F 3 "" H 7900 2000 50  0001 C CNN
	1    7900 2000
	1    0    0    -1  
$EndComp
$Comp
L Regulator_Linear:AMS1117-3.3 U102
U 1 1 5CF0EBB2
P 6800 3400
F 0 "U102" H 6800 3642 50  0000 C CNN
F 1 "AMS1117-3.3" H 6800 3551 50  0000 C CNN
F 2 "Package_TO_SOT_SMD:SOT-223-3_TabPin2" H 6800 3600 50  0001 C CNN
F 3 "http://www.advanced-monolithic.com/pdf/ds1117.pdf" H 6900 3150 50  0001 C CNN
	1    6800 3400
	1    0    0    -1  
$EndComp
$Comp
L Device:C_Small C104
U 1 1 5CF0F502
P 7500 3500
F 0 "C104" H 7592 3546 50  0000 L CNN
F 1 "100n" H 7592 3455 50  0000 L CNN
F 2 "Capacitor_SMD:C_0603_1608Metric" H 7500 3500 50  0001 C CNN
F 3 "~" H 7500 3500 50  0001 C CNN
	1    7500 3500
	1    0    0    -1  
$EndComp
$Comp
L power:GND #PWR0120
U 1 1 5CF0F509
P 7500 3700
F 0 "#PWR0120" H 7500 3450 50  0001 C CNN
F 1 "GND" H 7505 3527 50  0000 C CNN
F 2 "" H 7500 3700 50  0001 C CNN
F 3 "" H 7500 3700 50  0001 C CNN
	1    7500 3700
	1    0    0    -1  
$EndComp
Wire Wire Line
	7500 3700 7500 3600
Wire Wire Line
	7500 3300 7500 3400
$Comp
L Device:CP_Small C105
U 1 1 5CF0F511
P 7900 3500
F 0 "C105" H 7988 3546 50  0000 L CNN
F 1 "100uF 10V" H 7988 3455 50  0000 L CNN
F 2 "Capacitor_SMD:C_Elec_6.3x7.7" H 7900 3500 50  0001 C CNN
F 3 "~" H 7900 3500 50  0001 C CNN
	1    7900 3500
	1    0    0    -1  
$EndComp
$Comp
L power:GND #PWR0121
U 1 1 5CF0F518
P 7900 3700
F 0 "#PWR0121" H 7900 3450 50  0001 C CNN
F 1 "GND" H 7905 3527 50  0000 C CNN
F 2 "" H 7900 3700 50  0001 C CNN
F 3 "" H 7900 3700 50  0001 C CNN
	1    7900 3700
	1    0    0    -1  
$EndComp
Wire Wire Line
	7900 3700 7900 3600
Wire Wire Line
	7900 3300 7900 3400
$Comp
L power:+12V #PWR0116
U 1 1 5CF0F520
P 6400 3300
F 0 "#PWR0116" H 6400 3150 50  0001 C CNN
F 1 "+12V" H 6415 3473 50  0000 C CNN
F 2 "" H 6400 3300 50  0001 C CNN
F 3 "" H 6400 3300 50  0001 C CNN
	1    6400 3300
	1    0    0    -1  
$EndComp
Wire Wire Line
	6400 3300 6400 3400
Wire Wire Line
	6400 3400 6500 3400
Wire Wire Line
	7100 3400 7200 3400
Wire Wire Line
	7200 3400 7200 3300
$Comp
L power:+3V3 #PWR0118
U 1 1 5CF10633
P 7500 3300
F 0 "#PWR0118" H 7500 3150 50  0001 C CNN
F 1 "+3V3" H 7515 3473 50  0000 C CNN
F 2 "" H 7500 3300 50  0001 C CNN
F 3 "" H 7500 3300 50  0001 C CNN
	1    7500 3300
	1    0    0    -1  
$EndComp
$Comp
L power:+3V3 #PWR0117
U 1 1 5CF1065D
P 7200 3300
F 0 "#PWR0117" H 7200 3150 50  0001 C CNN
F 1 "+3V3" H 7215 3473 50  0000 C CNN
F 2 "" H 7200 3300 50  0001 C CNN
F 3 "" H 7200 3300 50  0001 C CNN
	1    7200 3300
	1    0    0    -1  
$EndComp
$Comp
L power:+3V3 #PWR0119
U 1 1 5CF10680
P 7900 3300
F 0 "#PWR0119" H 7900 3150 50  0001 C CNN
F 1 "+3V3" H 7915 3473 50  0000 C CNN
F 2 "" H 7900 3300 50  0001 C CNN
F 3 "" H 7900 3300 50  0001 C CNN
	1    7900 3300
	1    0    0    -1  
$EndComp
Wire Wire Line
	6800 3700 6800 3800
$Comp
L power:GND #PWR0122
U 1 1 5CF10B97
P 6800 3800
F 0 "#PWR0122" H 6800 3550 50  0001 C CNN
F 1 "GND" H 6805 3627 50  0000 C CNN
F 2 "" H 6800 3800 50  0001 C CNN
F 3 "" H 6800 3800 50  0001 C CNN
	1    6800 3800
	1    0    0    -1  
$EndComp
$Comp
L Mechanical:MountingHole_Pad H101
U 1 1 5CF12F3A
P 6400 4800
F 0 "H101" H 6500 4851 50  0000 L CNN
F 1 "M3" H 6500 4760 50  0000 L CNN
F 2 "MountingHole:MountingHole_3mm_Pad" H 6400 4800 50  0001 C CNN
F 3 "~" H 6400 4800 50  0001 C CNN
	1    6400 4800
	1    0    0    -1  
$EndComp
$Comp
L power:GND #PWR?
U 1 1 5CF1302C
P 6400 5000
AR Path="/5CFF53BB/5CF1302C" Ref="#PWR?"  Part="1" 
AR Path="/5CF1302C" Ref="#PWR0123"  Part="1" 
F 0 "#PWR0123" H 6400 4750 50  0001 C CNN
F 1 "GND" H 6405 4827 50  0000 C CNN
F 2 "" H 6400 5000 50  0001 C CNN
F 3 "" H 6400 5000 50  0001 C CNN
	1    6400 5000
	1    0    0    -1  
$EndComp
Wire Wire Line
	6400 5000 6400 4900
$Comp
L Mechanical:MountingHole_Pad H102
U 1 1 5CF1427B
P 6900 4800
F 0 "H102" H 7000 4851 50  0000 L CNN
F 1 "M3" H 7000 4760 50  0000 L CNN
F 2 "MountingHole:MountingHole_3mm_Pad" H 6900 4800 50  0001 C CNN
F 3 "~" H 6900 4800 50  0001 C CNN
	1    6900 4800
	1    0    0    -1  
$EndComp
$Comp
L power:GND #PWR?
U 1 1 5CF14281
P 6900 5000
AR Path="/5CFF53BB/5CF14281" Ref="#PWR?"  Part="1" 
AR Path="/5CF14281" Ref="#PWR0124"  Part="1" 
F 0 "#PWR0124" H 6900 4750 50  0001 C CNN
F 1 "GND" H 6905 4827 50  0000 C CNN
F 2 "" H 6900 5000 50  0001 C CNN
F 3 "" H 6900 5000 50  0001 C CNN
	1    6900 5000
	1    0    0    -1  
$EndComp
Wire Wire Line
	6900 5000 6900 4900
$Comp
L Mechanical:MountingHole_Pad H103
U 1 1 5CF1490A
P 7400 4800
F 0 "H103" H 7500 4851 50  0000 L CNN
F 1 "M3" H 7500 4760 50  0000 L CNN
F 2 "MountingHole:MountingHole_3mm_Pad" H 7400 4800 50  0001 C CNN
F 3 "~" H 7400 4800 50  0001 C CNN
	1    7400 4800
	1    0    0    -1  
$EndComp
$Comp
L power:GND #PWR?
U 1 1 5CF14910
P 7400 5000
AR Path="/5CFF53BB/5CF14910" Ref="#PWR?"  Part="1" 
AR Path="/5CF14910" Ref="#PWR0125"  Part="1" 
F 0 "#PWR0125" H 7400 4750 50  0001 C CNN
F 1 "GND" H 7405 4827 50  0000 C CNN
F 2 "" H 7400 5000 50  0001 C CNN
F 3 "" H 7400 5000 50  0001 C CNN
	1    7400 5000
	1    0    0    -1  
$EndComp
Wire Wire Line
	7400 5000 7400 4900
$Comp
L Mechanical:MountingHole_Pad H104
U 1 1 5CF14917
P 7900 4800
F 0 "H104" H 8000 4851 50  0000 L CNN
F 1 "M3" H 8000 4760 50  0000 L CNN
F 2 "MountingHole:MountingHole_3mm_Pad" H 7900 4800 50  0001 C CNN
F 3 "~" H 7900 4800 50  0001 C CNN
	1    7900 4800
	1    0    0    -1  
$EndComp
$Comp
L power:GND #PWR?
U 1 1 5CF1491D
P 7900 5000
AR Path="/5CFF53BB/5CF1491D" Ref="#PWR?"  Part="1" 
AR Path="/5CF1491D" Ref="#PWR0126"  Part="1" 
F 0 "#PWR0126" H 7900 4750 50  0001 C CNN
F 1 "GND" H 7905 4827 50  0000 C CNN
F 2 "" H 7900 5000 50  0001 C CNN
F 3 "" H 7900 5000 50  0001 C CNN
	1    7900 5000
	1    0    0    -1  
$EndComp
Wire Wire Line
	7900 5000 7900 4900
Wire Wire Line
	4400 4900 4300 4900
NoConn ~ 4300 4900
$Comp
L Connector:Conn_01x02_Female J104
U 1 1 5CF32142
P 9000 4250
F 0 "J104" H 9028 4226 50  0000 L CNN
F 1 "VDC" H 9028 4135 50  0000 L CNN
F 2 "Connector_Molex:Molex_KK-254_AE-6410-02A_1x02_P2.54mm_Vertical" H 9000 4250 50  0001 C CNN
F 3 "~" H 9000 4250 50  0001 C CNN
	1    9000 4250
	1    0    0    1   
$EndComp
$Comp
L power:GND #PWR0128
U 1 1 5CF324F2
P 8700 4350
F 0 "#PWR0128" H 8700 4100 50  0001 C CNN
F 1 "GND" V 8705 4222 50  0000 R CNN
F 2 "" H 8700 4350 50  0001 C CNN
F 3 "" H 8700 4350 50  0001 C CNN
	1    8700 4350
	1    0    0    -1  
$EndComp
$Comp
L power:+VDC #PWR0129
U 1 1 5CF34BD3
P 8700 4050
F 0 "#PWR0129" H 8700 3950 50  0001 C CNN
F 1 "+VDC" H 8700 4325 50  0000 C CNN
F 2 "" H 8700 4050 50  0001 C CNN
F 3 "" H 8700 4050 50  0001 C CNN
	1    8700 4050
	1    0    0    -1  
$EndComp
Wire Wire Line
	8800 4150 8700 4150
Wire Wire Line
	8700 4150 8700 4050
Wire Wire Line
	8800 4250 8700 4250
Wire Wire Line
	8700 4250 8700 4350
$Comp
L power:-VSW #PWR0131
U 1 1 5CF29908
P 10000 3350
F 0 "#PWR0131" H 10000 3450 50  0001 C CNN
F 1 "-VSW" H 10015 3523 50  0000 C CNN
F 2 "" H 10000 3350 50  0001 C CNN
F 3 "" H 10000 3350 50  0001 C CNN
	1    10000 3350
	-1   0    0    1   
$EndComp
$Comp
L power:VBUS #PWR0132
U 1 1 5CF29F76
P 10450 4000
F 0 "#PWR0132" H 10450 3850 50  0001 C CNN
F 1 "VBUS" H 10465 4173 50  0000 C CNN
F 2 "" H 10450 4000 50  0001 C CNN
F 3 "" H 10450 4000 50  0001 C CNN
	1    10450 4000
	1    0    0    -1  
$EndComp
$Comp
L power:PWR_FLAG #FLG0101
U 1 1 5CF2AD0F
P 10000 3250
F 0 "#FLG0101" H 10000 3325 50  0001 C CNN
F 1 "PWR_FLAG" H 10000 3423 50  0000 C CNN
F 2 "" H 10000 3250 50  0001 C CNN
F 3 "~" H 10000 3250 50  0001 C CNN
	1    10000 3250
	1    0    0    -1  
$EndComp
$Comp
L power:PWR_FLAG #FLG0102
U 1 1 5CF2B19A
P 10450 4100
F 0 "#FLG0102" H 10450 4175 50  0001 C CNN
F 1 "PWR_FLAG" H 10450 4273 50  0000 C CNN
F 2 "" H 10450 4100 50  0001 C CNN
F 3 "~" H 10450 4100 50  0001 C CNN
	1    10450 4100
	-1   0    0    1   
$EndComp
Wire Wire Line
	10000 3250 10000 3350
Wire Wire Line
	10450 4000 10450 4100
$Comp
L power:+VDC #PWR0133
U 1 1 5CF2CEF0
P 10450 3250
F 0 "#PWR0133" H 10450 3150 50  0001 C CNN
F 1 "+VDC" H 10450 3525 50  0000 C CNN
F 2 "" H 10450 3250 50  0001 C CNN
F 3 "" H 10450 3250 50  0001 C CNN
	1    10450 3250
	1    0    0    -1  
$EndComp
$Comp
L power:PWR_FLAG #FLG0103
U 1 1 5CF2D3F3
P 10450 3350
F 0 "#FLG0103" H 10450 3425 50  0001 C CNN
F 1 "PWR_FLAG" H 10450 3523 50  0000 C CNN
F 2 "" H 10450 3350 50  0001 C CNN
F 3 "~" H 10450 3350 50  0001 C CNN
	1    10450 3350
	-1   0    0    1   
$EndComp
Wire Wire Line
	10450 3250 10450 3350
$Comp
L power:VDDA #PWR0134
U 1 1 5CF35C5C
P 10000 4000
F 0 "#PWR0134" H 10000 3850 50  0001 C CNN
F 1 "VDDA" H 10017 4173 50  0000 C CNN
F 2 "" H 10000 4000 50  0001 C CNN
F 3 "" H 10000 4000 50  0001 C CNN
	1    10000 4000
	1    0    0    -1  
$EndComp
$Comp
L power:PWR_FLAG #FLG0104
U 1 1 5CF3617E
P 10000 4100
F 0 "#FLG0104" H 10000 4175 50  0001 C CNN
F 1 "PWR_FLAG" H 10000 4273 50  0000 C CNN
F 2 "" H 10000 4100 50  0001 C CNN
F 3 "~" H 10000 4100 50  0001 C CNN
	1    10000 4100
	-1   0    0    1   
$EndComp
Wire Wire Line
	10000 4000 10000 4100
$EndSCHEMATC
